# Facebook
0.0.0.0 0-act.channel.facebook.com
0.0.0.0 0-edge-chat.facebook.com
0.0.0.0 0.beta.facebook.com
0.0.0.0 1-act.channel.facebook.com
0.0.0.0 1-edge-chat.facebook.com
0.0.0.0 2-act.channel.facebook.com
0.0.0.0 2-edge-chat.facebook.com
0.0.0.0 3-act.channel.facebook.com
0.0.0.0 3-edge-chat.facebook.com
0.0.0.0 4-act.channel.facebook.com
0.0.0.0 4-edge-chat.facebook.com
0.0.0.0 5-act.channel.facebook.com
0.0.0.0 5-edge-chat.facebook.com
0.0.0.0 6-act.channel.facebook.com
0.0.0.0 6-edge-chat.facebook.com
0.0.0.0 a.ns.facebook.com
0.0.0.0 a1qa.m.facebook.com
0.0.0.0 a3.sphotos.ak.fbcdn.net
0.0.0.0 abc.facebook.com
0.0.0.0 about.facebook.com
0.0.0.0 act.channel.facebook.com
0.0.0.0 act.facebook.com
0.0.0.0 actcorp.m.facebook.com
0.0.0.0 ads.facebook.com
0.0.0.0 ae0.bb01.ams2.tfbnw.net
0.0.0.0 ae0.bb01.atl1.tfbnw.net
0.0.0.0 ae0.bb01.bos2.tfbnw.net
0.0.0.0 ae0.bb01.hkg1.tfbnw.net
0.0.0.0 ae0.bb01.hnd1.tfbnw.net
0.0.0.0 ae0.bb01.lhr2.tfbnw.net
0.0.0.0 ae0.bb01.lla1.tfbnw.net
0.0.0.0 ae0.bb01.mia1.tfbnw.net
0.0.0.0 ae0.bb01.nrt1.tfbnw.net
0.0.0.0 ae0.bb01.sin1.tfbnw.net
0.0.0.0 ae0.bb02.ams2.tfbnw.net
0.0.0.0 ae0.bb02.atl1.tfbnw.net
0.0.0.0 ae0.bb02.bos2.tfbnw.net
0.0.0.0 ae0.bb02.hkg1.tfbnw.net
0.0.0.0 ae0.bb02.lhr2.tfbnw.net
0.0.0.0 ae0.bb02.lla1.tfbnw.net
0.0.0.0 ae0.bb02.mia1.tfbnw.net
0.0.0.0 ae0.bb02.sin1.tfbnw.net
0.0.0.0 ae0.bb03.atn1.tfbnw.net
0.0.0.0 ae0.bb03.frc3.tfbnw.net
0.0.0.0 ae0.bb03.lla1.tfbnw.net
0.0.0.0 ae0.bb03.prn2.tfbnw.net
0.0.0.0 ae0.bb03.sjc1.tfbnw.net
0.0.0.0 ae0.bb04.atn1.tfbnw.net
0.0.0.0 ae0.bb04.frc3.tfbnw.net
0.0.0.0 ae0.bb04.lla1.tfbnw.net
0.0.0.0 ae0.bb04.prn2.tfbnw.net
0.0.0.0 ae0.bb04.sjc1.tfbnw.net
0.0.0.0 ae0.bb05.frc3.tfbnw.net
0.0.0.0 ae0.bb05.lla1.tfbnw.net
0.0.0.0 ae0.bb05.prn2.tfbnw.net
0.0.0.0 ae0.bb06.frc3.tfbnw.net
0.0.0.0 ae0.bb06.lla1.tfbnw.net
0.0.0.0 ae0.bb07.lla1.tfbnw.net
0.0.0.0 ae0.br01.arn2.tfbnw.net
0.0.0.0 ae0.br01.bru2.tfbnw.net
0.0.0.0 ae0.br01.cai1.tfbnw.net
0.0.0.0 ae0.br01.gru1.tfbnw.net
0.0.0.0 ae0.br01.mad1.tfbnw.net
0.0.0.0 ae0.br01.mrs1.tfbnw.net
0.0.0.0 ae0.br01.mxp1.tfbnw.net
0.0.0.0 ae0.br01.syd1.tfbnw.net
0.0.0.0 ae0.br01.tpe1.tfbnw.net
0.0.0.0 ae0.br01.vie1.tfbnw.net
0.0.0.0 ae0.dr01.prn2.tfbnw.net
0.0.0.0 ae0.dr01.snc1.tfbnw.net
0.0.0.0 ae0.dr02.prn2.tfbnw.net
0.0.0.0 ae0.dr02.snc1.tfbnw.net
0.0.0.0 ae0.dr03.ash3.tfbnw.net
0.0.0.0 ae0.dr03.prn2.tfbnw.net
0.0.0.0 ae0.dr04.ash3.tfbnw.net
0.0.0.0 ae0.dr04.prn2.tfbnw.net
0.0.0.0 ae0.lr01.ash3.tfbnw.net
0.0.0.0 ae0.lr02.ash3.tfbnw.net
0.0.0.0 ae0.pr01.ams2.tfbnw.net
0.0.0.0 ae0.pr01.ams3.tfbnw.net
0.0.0.0 ae0.pr01.dfw1.tfbnw.net
0.0.0.0 ae0.pr01.fra2.tfbnw.net
0.0.0.0 ae0.pr01.lhr2.tfbnw.net
0.0.0.0 ae0.pr01.mia1.tfbnw.net
0.0.0.0 ae0.pr02.dfw1.tfbnw.net
0.0.0.0 ae0.pr02.fra2.tfbnw.net
0.0.0.0 ae0.pr02.iad3.tfbnw.net
0.0.0.0 ae0.pr02.lax1.tfbnw.net
0.0.0.0 ae0.pr02.lga1.tfbnw.net
0.0.0.0 ae0.pr02.mia1.tfbnw.net
0.0.0.0 ae0.pr02.ord1.tfbnw.net
0.0.0.0 ae0.pr03.sjc1.tfbnw.net
0.0.0.0 ae0.pr04.sjc1.tfbnw.net
0.0.0.0 ae10.bb01.atl1.tfbnw.net
0.0.0.0 ae10.bb01.lhr2.tfbnw.net
0.0.0.0 ae10.bb01.lla1.tfbnw.net
0.0.0.0 ae10.bb01.mia1.tfbnw.net
0.0.0.0 ae10.bb01.sin1.tfbnw.net
0.0.0.0 ae10.bb02.atl1.tfbnw.net
0.0.0.0 ae10.bb02.hkg1.tfbnw.net
0.0.0.0 ae10.bb02.lhr2.tfbnw.net
0.0.0.0 ae10.bb02.lla1.tfbnw.net
0.0.0.0 ae10.bb02.mia1.tfbnw.net
0.0.0.0 ae10.bb02.sin1.tfbnw.net
0.0.0.0 ae10.bb03.atn1.tfbnw.net
0.0.0.0 ae10.bb03.frc3.tfbnw.net
0.0.0.0 ae10.bb03.lla1.tfbnw.net
0.0.0.0 ae10.bb03.sjc1.tfbnw.net
0.0.0.0 ae10.bb04.atn1.tfbnw.net
0.0.0.0 ae10.bb04.frc3.tfbnw.net
0.0.0.0 ae10.bb04.lla1.tfbnw.net
0.0.0.0 ae10.bb04.sjc1.tfbnw.net
0.0.0.0 ae10.bb05.lla1.tfbnw.net
0.0.0.0 ae10.bb06.frc3.tfbnw.net
0.0.0.0 ae10.bb06.lla1.tfbnw.net
0.0.0.0 ae10.br01.bru2.tfbnw.net
0.0.0.0 ae10.br01.kul1.tfbnw.net
0.0.0.0 ae10.br01.mad1.tfbnw.net
0.0.0.0 ae10.br01.mxp1.tfbnw.net
0.0.0.0 ae10.br01.tpe1.tfbnw.net
0.0.0.0 ae10.br02.vie1.tfbnw.net
0.0.0.0 ae10.dr01.frc1.tfbnw.net
0.0.0.0 ae10.dr02.frc1.tfbnw.net
0.0.0.0 ae10.dr02.prn1.tfbnw.net
0.0.0.0 ae10.dr05.prn1.tfbnw.net
0.0.0.0 ae10.dr06.prn1.tfbnw.net
0.0.0.0 ae10.pr01.atl1.tfbnw.net
0.0.0.0 ae10.pr01.dfw1.tfbnw.net
0.0.0.0 ae10.pr01.fra2.tfbnw.net
0.0.0.0 ae10.pr01.lax1.tfbnw.net
0.0.0.0 ae10.pr01.mia1.tfbnw.net
0.0.0.0 ae10.pr01.nrt1.tfbnw.net
0.0.0.0 ae10.pr01.sin1.tfbnw.net
0.0.0.0 ae10.pr02.atl1.tfbnw.net
0.0.0.0 ae10.pr02.fra2.tfbnw.net
0.0.0.0 ae10.pr02.sin1.tfbnw.net
0.0.0.0 ae11.bb01.ams2.tfbnw.net
0.0.0.0 ae11.bb01.atl1.tfbnw.net
0.0.0.0 ae11.bb01.lhr2.tfbnw.net
0.0.0.0 ae11.bb01.mia1.tfbnw.net
0.0.0.0 ae11.bb01.nrt1.tfbnw.net
0.0.0.0 ae11.bb01.sin1.tfbnw.net
0.0.0.0 ae11.bb02.ams2.tfbnw.net
0.0.0.0 ae11.bb02.atl1.tfbnw.net
0.0.0.0 ae11.bb02.hkg1.tfbnw.net
0.0.0.0 ae11.bb02.lhr2.tfbnw.net
0.0.0.0 ae11.bb02.mia1.tfbnw.net
0.0.0.0 ae11.bb02.sin1.tfbnw.net
0.0.0.0 ae11.bb03.atn1.tfbnw.net
0.0.0.0 ae11.bb03.frc3.tfbnw.net
0.0.0.0 ae11.bb03.prn2.tfbnw.net
0.0.0.0 ae11.bb03.sjc1.tfbnw.net
0.0.0.0 ae11.bb04.atn1.tfbnw.net
0.0.0.0 ae11.bb04.frc3.tfbnw.net
0.0.0.0 ae11.bb04.prn2.tfbnw.net
0.0.0.0 ae11.bb04.sjc1.tfbnw.net
0.0.0.0 ae11.bb05.lla1.tfbnw.net
0.0.0.0 ae11.bb06.frc3.tfbnw.net
0.0.0.0 ae11.bb06.lla1.tfbnw.net
0.0.0.0 ae11.br01.kul1.tfbnw.net
0.0.0.0 ae11.br01.mad1.tfbnw.net
0.0.0.0 ae11.br01.tpe1.tfbnw.net
0.0.0.0 ae11.br01.vie1.tfbnw.net
0.0.0.0 ae11.br02.mxp1.tfbnw.net
0.0.0.0 ae11.br02.vie1.tfbnw.net
0.0.0.0 ae11.dr01.atn1.tfbnw.net
0.0.0.0 ae11.dr01.frc1.tfbnw.net
0.0.0.0 ae11.dr01.snc1.tfbnw.net
0.0.0.0 ae11.dr02.atn1.tfbnw.net
0.0.0.0 ae11.dr02.frc1.tfbnw.net
0.0.0.0 ae11.dr02.snc1.tfbnw.net
0.0.0.0 ae11.dr03.atn1.tfbnw.net
0.0.0.0 ae11.dr03.frc1.tfbnw.net
0.0.0.0 ae11.dr04.atn1.tfbnw.net
0.0.0.0 ae11.dr04.frc1.tfbnw.net
0.0.0.0 ae11.pr01.atl1.tfbnw.net
0.0.0.0 ae11.pr01.dfw1.tfbnw.net
0.0.0.0 ae11.pr01.hkg1.tfbnw.net
0.0.0.0 ae11.pr01.lga1.tfbnw.net
0.0.0.0 ae11.pr01.lhr2.tfbnw.net
0.0.0.0 ae11.pr01.lhr3.tfbnw.net
0.0.0.0 ae11.pr01.ord1.tfbnw.net
0.0.0.0 ae11.pr02.atl1.tfbnw.net
0.0.0.0 ae11.pr02.cdg1.tfbnw.net
0.0.0.0 ae11.pr02.fra2.tfbnw.net
0.0.0.0 ae11.pr02.lax1.tfbnw.net
0.0.0.0 ae12.bb01.ams2.tfbnw.net
0.0.0.0 ae12.bb01.lhr2.tfbnw.net
0.0.0.0 ae12.bb01.mia1.tfbnw.net
0.0.0.0 ae12.bb01.nrt1.tfbnw.net
0.0.0.0 ae12.bb02.ams2.tfbnw.net
0.0.0.0 ae12.bb02.atl1.tfbnw.net
0.0.0.0 ae12.bb02.lhr2.tfbnw.net
0.0.0.0 ae12.bb02.mia1.tfbnw.net
0.0.0.0 ae12.bb03.atn1.tfbnw.net
0.0.0.0 ae12.bb03.frc3.tfbnw.net
0.0.0.0 ae12.bb03.prn2.tfbnw.net
0.0.0.0 ae12.bb03.sjc1.tfbnw.net
0.0.0.0 ae12.bb04.atn1.tfbnw.net
0.0.0.0 ae12.bb04.frc3.tfbnw.net
0.0.0.0 ae12.bb04.prn2.tfbnw.net
0.0.0.0 ae12.bb04.sjc1.tfbnw.net
0.0.0.0 ae12.bb05.lla1.tfbnw.net
0.0.0.0 ae12.bb06.frc3.tfbnw.net
0.0.0.0 ae12.bb06.lla1.tfbnw.net
0.0.0.0 ae12.br01.kul1.tfbnw.net
0.0.0.0 ae12.br01.mad1.tfbnw.net
0.0.0.0 ae12.br01.mxp1.tfbnw.net
0.0.0.0 ae12.br01.vie1.tfbnw.net
0.0.0.0 ae12.br02.mxp1.tfbnw.net
0.0.0.0 ae12.br02.vie1.tfbnw.net
0.0.0.0 ae12.dr01.atn1.tfbnw.net
0.0.0.0 ae12.dr01.frc1.tfbnw.net
0.0.0.0 ae12.dr01.snc1.tfbnw.net
0.0.0.0 ae12.dr02.atn1.tfbnw.net
0.0.0.0 ae12.dr02.frc1.tfbnw.net
0.0.0.0 ae12.dr02.snc1.tfbnw.net
0.0.0.0 ae12.dr03.atn1.tfbnw.net
0.0.0.0 ae12.dr03.frc1.tfbnw.net
0.0.0.0 ae12.dr04.atn1.tfbnw.net
0.0.0.0 ae12.dr04.frc1.tfbnw.net
0.0.0.0 ae12.pr01.ams2.tfbnw.net
0.0.0.0 ae12.pr01.ams3.tfbnw.net
0.0.0.0 ae12.pr01.atl1.tfbnw.net
0.0.0.0 ae12.pr01.hkg1.tfbnw.net
0.0.0.0 ae12.pr01.lga1.tfbnw.net
0.0.0.0 ae12.pr01.lhr2.tfbnw.net
0.0.0.0 ae12.pr01.mia1.tfbnw.net
0.0.0.0 ae12.pr01.ord1.tfbnw.net
0.0.0.0 ae12.pr01.sea1.tfbnw.net
0.0.0.0 ae12.pr01.sin1.tfbnw.net
0.0.0.0 ae12.pr02.atl1.tfbnw.net
0.0.0.0 ae12.pr02.sea1.tfbnw.net
0.0.0.0 ae13.bb01.atl1.tfbnw.net
0.0.0.0 ae13.bb01.lhr2.tfbnw.net
0.0.0.0 ae13.bb01.mia1.tfbnw.net
0.0.0.0 ae13.bb01.nrt1.tfbnw.net
0.0.0.0 ae13.bb01.sin1.tfbnw.net
0.0.0.0 ae13.bb02.lhr2.tfbnw.net
0.0.0.0 ae13.bb02.mia1.tfbnw.net
0.0.0.0 ae13.bb03.atn1.tfbnw.net
0.0.0.0 ae13.bb03.frc3.tfbnw.net
0.0.0.0 ae13.bb03.prn2.tfbnw.net
0.0.0.0 ae13.bb03.sjc1.tfbnw.net
0.0.0.0 ae13.bb04.atn1.tfbnw.net
0.0.0.0 ae13.bb04.frc3.tfbnw.net
0.0.0.0 ae13.bb04.prn2.tfbnw.net
0.0.0.0 ae13.bb04.sjc1.tfbnw.net
0.0.0.0 ae13.bb05.lla1.tfbnw.net
0.0.0.0 ae13.bb06.lla1.tfbnw.net
0.0.0.0 ae13.br01.mad1.tfbnw.net
0.0.0.0 ae13.br01.mxp1.tfbnw.net
0.0.0.0 ae13.br01.tpe1.tfbnw.net
0.0.0.0 ae13.br01.vie1.tfbnw.net
0.0.0.0 ae13.br02.mxp1.tfbnw.net
0.0.0.0 ae13.br02.vie1.tfbnw.net
0.0.0.0 ae13.dr01.atn1.tfbnw.net
0.0.0.0 ae13.dr01.frc1.tfbnw.net
0.0.0.0 ae13.dr02.atn1.tfbnw.net
0.0.0.0 ae13.dr02.frc1.tfbnw.net
0.0.0.0 ae13.dr03.atn1.tfbnw.net
0.0.0.0 ae13.dr03.frc1.tfbnw.net
0.0.0.0 ae13.dr04.atn1.tfbnw.net
0.0.0.0 ae13.dr04.frc1.tfbnw.net
0.0.0.0 ae13.dr05.prn1.tfbnw.net
0.0.0.0 ae13.pr01.ams2.tfbnw.net
0.0.0.0 ae13.pr01.atl1.tfbnw.net
0.0.0.0 ae13.pr01.cdg1.tfbnw.net
0.0.0.0 ae13.pr01.hkg1.tfbnw.net
0.0.0.0 ae13.pr01.iad3.tfbnw.net
0.0.0.0 ae13.pr01.lhr2.tfbnw.net
0.0.0.0 ae13.pr01.mia1.tfbnw.net
0.0.0.0 ae13.pr01.ord1.tfbnw.net
0.0.0.0 ae13.pr01.sea1.tfbnw.net
0.0.0.0 airasia.m.facebook.com
0.0.0.0 ak.facebook.com
0.0.0.0 algar.m.facebook.com
0.0.0.0 allo.m.facebook.com
0.0.0.0 alpha-shv-03-ash5.facebook.com
0.0.0.0 alpha-shv-03-atn1.facebook.com
0.0.0.0 alpha-shv-03-lla1.facebook.com
0.0.0.0 alpha-shv-04-prn2.facebook.com
0.0.0.0 alpha-shv-09-frc1.facebook.com
0.0.0.0 alpha.vvv.facebook.com
0.0.0.0 api-read.facebook.com
0.0.0.0 api.ak.facebook.com
0.0.0.0 api.connect.facebook.com
0.0.0.0 api.facebook.com
0.0.0.0 app.facebook.com
0.0.0.0 apps.facebook.com
0.0.0.0 ar-ar.facebook.com
0.0.0.0 ar-ar.fr-fr.es-es.prod.facebook.com
0.0.0.0 ash1.fbcdn.net
0.0.0.0 asos.m.facebook.com
0.0.0.0 asurion.m.facebook.com
0.0.0.0 atlas-shv-01-prn2.facebook.com
0.0.0.0 atlas-shv-04-lla1.facebook.com
0.0.0.0 atlas-shv-05-ash3.facebook.com
0.0.0.0 atlas-shv-06-ash2.facebook.com
0.0.0.0 atlas-shv-06-frc1.facebook.com
0.0.0.0 atlas-shv-07-lla1.facebook.com
0.0.0.0 atlas-shv-09-frc3.facebook.com
0.0.0.0 atlas-shv-13-prn1.facebook.com
0.0.0.0 atlas-www-shv-04-prn2.facebook.com
0.0.0.0 atlas-www-shv-07-ash4.facebook.com
0.0.0.0 atlas-www-shv-09-frc1.facebook.com
0.0.0.0 atlas.c10r.facebook.com
0.0.0.0 atlasalpha-shv-09-frc3.facebook.com
0.0.0.0 atlasinyour-shv-05-ash3.facebook.com
0.0.0.0 attachment.fbsbx.com
0.0.0.0 attachments.facebook.com
0.0.0.0 aura-11-01-snc7.facebook.com
0.0.0.0 axiata.m.facebook.com
0.0.0.0 axis.m.facebook.com
0.0.0.0 az-az.facebook.com
0.0.0.0 b-api.facebook.com
0.0.0.0 b-graph.facebook.com
0.0.0.0 b-m.facebook.com
0.0.0.0 b-www.facebook.com
0.0.0.0 b.ns.facebook.com
0.0.0.0 b.static.ak.facebook.com
0.0.0.0 b.static.ak.fbcdn.net
0.0.0.0 badge.facebook.com
0.0.0.0 bc.facebook.com
0.0.0.0 bd.m.facebook.com
0.0.0.0 beta-chat-01-05-ash3.facebook.com
0.0.0.0 beta-shv-03-atn1.facebook.com
0.0.0.0 beta-shv-03-lla1.facebook.com
0.0.0.0 beta-shv-04-prn2.facebook.com
0.0.0.0 beta-shv-09-frc1.facebook.com
0.0.0.0 beta.facebook.com
0.0.0.0 beta.vvv.facebook.com
0.0.0.0 betanet-shv-03-atn1.facebook.com
0.0.0.0 betanet-shv-03-lla1.facebook.com
0.0.0.0 betanet-shv-04-prn2.facebook.com
0.0.0.0 betanet-shv-09-frc1.facebook.com
0.0.0.0 bg-bg.facebook.com
0.0.0.0 bidder-shv-05-frc3.facebook.com
0.0.0.0 bidder-shv-10-frc1.facebook.com
0.0.0.0 bidv.m.facebook.com
0.0.0.0 bigzipfiles.facebook.com
0.0.0.0 blog.facebook.com
0.0.0.0 boostcom.m.facebook.com
0.0.0.0 bs-ba.facebook.com
0.0.0.0 business.facebook.com
0.0.0.0 c.facebook.com
0.0.0.0 ca-es.facebook.com
0.0.0.0 capiot.m.facebook.com
0.0.0.0 ccamatil.m.facebook.com
0.0.0.0 cdg2.fbcdn.net
0.0.0.0 channel-ecmp-05-ash3.facebook.com
0.0.0.0 channel-proxy-shv-04-frc3.facebook.com
0.0.0.0 channel-proxy-shv-06-ash2.facebook.com
0.0.0.0 channel-proxy-shv-07-ash2.facebook.com
0.0.0.0 channel-proxy-shv-13-prn1.facebook.com
0.0.0.0 channel-proxy-test-shv-07-ash2.facebook.com
0.0.0.0 channel-staging-ecmp-05-ash3.facebook.com
0.0.0.0 channel-testing-ecmp-05-ash3.facebook.com
0.0.0.0 check4.facebook.com
0.0.0.0 check6.facebook.com
0.0.0.0 clubmed.m.facebook.com
0.0.0.0 code.facebook.com
0.0.0.0 com0.facebook.com
0.0.0.0 comfytrade.m.facebook.com
0.0.0.0 conectadosbancogalicia.m.facebook.com
0.0.0.0 connect.facebook.com
0.0.0.0 connect.facebook.net
0.0.0.0 connect.facebook.net.edgekey.net
0.0.0.0 creative.ak.fbcdn.net
0.0.0.0 cs-cz.facebook.com
0.0.0.0 csf.facebook.com
0.0.0.0 ct-m-fbx.fbsbx.com
0.0.0.0 d.facebook.com
0.0.0.0 d.vvv.facebook.com
0.0.0.0 da-dk.facebook.com
0.0.0.0 da-dk.facebook.dk
0.0.0.0 danone.m.facebook.com
0.0.0.0 davivienda.m.facebook.com
0.0.0.0 de-de.facebook.com
0.0.0.0 de-de.facebook.de
0.0.0.0 deloitte.m.facebook.com
0.0.0.0 dev.vvv.facebook.com
0.0.0.0 developers.facebook.com
0.0.0.0 dixonscarphone.m.facebook.com
0.0.0.0 dm.m.facebook.com
0.0.0.0 dns.facebook.com
0.0.0.0 ed.facebook.com
0.0.0.0 edge-atlas-proxyprotocol-shv-01-ash5.facebook.com
0.0.0.0 edge-atlas-proxyprotocol-shv-03-ash5.facebook.com
0.0.0.0 edge-atlas-proxyprotocol-shv-07-ash4.facebook.com
0.0.0.0 edge-atlas-proxyprotocol-shv-07-frc3.facebook.com
0.0.0.0 edge-atlas-proxyprotocol-shv-09-frc1.facebook.com
0.0.0.0 edge-atlas-proxyprotocol-shv-12-frc1.facebook.com
0.0.0.0 edge-atlas-proxyprotocol-shv-12-frc3.facebook.com
0.0.0.0 edge-atlas-proxyprotocol-shv-13-frc1.facebook.com
0.0.0.0 edge-atlas-shv-01-ams2.facebook.com
0.0.0.0 edge-atlas-shv-01-ams3.facebook.com
0.0.0.0 edge-atlas-shv-01-ash5.facebook.com
0.0.0.0 edge-atlas-shv-01-atl1.facebook.com
0.0.0.0 edge-atlas-shv-01-bru2.facebook.com
0.0.0.0 edge-atlas-shv-01-cai1.facebook.com
0.0.0.0 edge-atlas-shv-01-cdg2.facebook.com
0.0.0.0 edge-atlas-shv-01-dfw1.facebook.com
0.0.0.0 edge-atlas-shv-01-fra3.facebook.com
0.0.0.0 edge-atlas-shv-01-gru1.facebook.com
0.0.0.0 edge-atlas-shv-01-hkg2.facebook.com
0.0.0.0 edge-atlas-shv-01-iad3.facebook.com
0.0.0.0 edge-atlas-shv-01-kul1.facebook.com
0.0.0.0 edge-atlas-shv-01-lax1.facebook.com
0.0.0.0 edge-atlas-shv-01-lga1.facebook.com
0.0.0.0 edge-atlas-shv-01-lhr3.facebook.com
0.0.0.0 edge-atlas-shv-01-mad1.facebook.com
0.0.0.0 edge-atlas-shv-01-mia1.facebook.com
0.0.0.0 edge-atlas-shv-01-mxp1.facebook.com
0.0.0.0 edge-atlas-shv-01-nrt1.facebook.com
0.0.0.0 edge-atlas-shv-01-ord1.facebook.com
0.0.0.0 edge-atlas-shv-01-sea1.facebook.com
0.0.0.0 edge-atlas-shv-01-sin1.facebook.com
0.0.0.0 edge-atlas-shv-01-sjc2.facebook.com
0.0.0.0 edge-atlas-shv-01-syd1.facebook.com
0.0.0.0 edge-atlas-shv-01-vie1.facebook.com
0.0.0.0 edge-atlas-shv-02-cai1.facebook.com
0.0.0.0 edge-atlas-shv-02-hkg2.facebook.com
0.0.0.0 edge-atlas-shv-03-ash5.facebook.com
0.0.0.0 edge-atlas-shv-03-atn1.facebook.com
0.0.0.0 edge-atlas-shv-03-hkg1.facebook.com
0.0.0.0 edge-atlas-shv-03-lla1.facebook.com
0.0.0.0 edge-atlas-shv-03-prn2.facebook.com
0.0.0.0 edge-atlas-shv-03-xdc1.facebook.com
0.0.0.0 edge-atlas-shv-04-hkg1.facebook.com
0.0.0.0 edge-atlas-shv-04-prn2.facebook.com
0.0.0.0 edge-atlas-shv-06-atn1.facebook.com
0.0.0.0 edge-atlas-shv-06-lla1.facebook.com
0.0.0.0 edge-atlas-shv-07-ash4.facebook.com
0.0.0.0 edge-atlas-shv-09-frc1.facebook.com
0.0.0.0 edge-atlas-shv-09-lla1.facebook.com
0.0.0.0 edge-atlas-shv-12-frc1.facebook.com
0.0.0.0 edge-atlas-shv-12-frc3.facebook.com
0.0.0.0 edge-atlas-shv-12-lla1.facebook.com
0.0.0.0 edge-atlas-shv-12-prn1.facebook.com
0.0.0.0 edge-atlas-shv-13-frc1.facebook.com
0.0.0.0 edge-atlas-shv-17-prn1.facebook.com
0.0.0.0 edge-atlas-shv-18-prn1.facebook.com
0.0.0.0 edge-chat.facebook.com
0.0.0.0 edge-liverail-shv-01-ams2.facebook.com
0.0.0.0 edge-liverail-shv-01-ams3.facebook.com
0.0.0.0 edge-liverail-shv-01-ash5.facebook.com
0.0.0.0 edge-liverail-shv-01-atl1.facebook.com
0.0.0.0 edge-liverail-shv-01-bru2.facebook.com
0.0.0.0 edge-liverail-shv-01-cai1.facebook.com
0.0.0.0 edge-liverail-shv-01-cdg2.facebook.com
0.0.0.0 edge-liverail-shv-01-dfw1.facebook.com
0.0.0.0 edge-liverail-shv-01-fra3.facebook.com
0.0.0.0 edge-liverail-shv-01-gru1.facebook.com
0.0.0.0 edge-liverail-shv-01-hkg2.facebook.com
0.0.0.0 edge-liverail-shv-01-iad3.facebook.com
0.0.0.0 edge-liverail-shv-01-kul1.facebook.com
0.0.0.0 edge-liverail-shv-01-lax1.facebook.com
0.0.0.0 edge-liverail-shv-01-lga1.facebook.com
0.0.0.0 edge-liverail-shv-01-lhr3.facebook.com
0.0.0.0 edge-liverail-shv-01-mad1.facebook.com
0.0.0.0 edge-liverail-shv-01-mia1.facebook.com
0.0.0.0 edge-liverail-shv-01-mxp1.facebook.com
0.0.0.0 edge-liverail-shv-01-nrt1.facebook.com
0.0.0.0 edge-liverail-shv-01-ord1.facebook.com
0.0.0.0 edge-liverail-shv-01-sea1.facebook.com
0.0.0.0 edge-liverail-shv-01-sin1.facebook.com
0.0.0.0 edge-liverail-shv-01-sjc2.facebook.com
0.0.0.0 edge-liverail-shv-01-syd1.facebook.com
0.0.0.0 edge-liverail-shv-01-tpe1.facebook.com
0.0.0.0 edge-liverail-shv-01-vie1.facebook.com
0.0.0.0 edge-liverail-shv-02-cai1.facebook.com
0.0.0.0 edge-liverail-shv-02-hkg2.facebook.com
0.0.0.0 edge-liverail-shv-03-ash5.facebook.com
0.0.0.0 edge-liverail-shv-03-atn1.facebook.com
0.0.0.0 edge-liverail-shv-03-hkg1.facebook.com
0.0.0.0 edge-liverail-shv-03-lla1.facebook.com
0.0.0.0 edge-liverail-shv-03-prn2.facebook.com
0.0.0.0 edge-liverail-shv-03-xdc1.facebook.com
0.0.0.0 edge-liverail-shv-04-hkg1.facebook.com
0.0.0.0 edge-liverail-shv-04-prn2.facebook.com
0.0.0.0 edge-liverail-shv-06-atn1.facebook.com
0.0.0.0 edge-liverail-shv-06-lla1.facebook.com
0.0.0.0 edge-liverail-shv-07-ash4.facebook.com
0.0.0.0 edge-liverail-shv-07-frc3.facebook.com
0.0.0.0 edge-liverail-shv-09-frc1.facebook.com
0.0.0.0 edge-liverail-shv-09-lla1.facebook.com
0.0.0.0 edge-liverail-shv-12-frc1.facebook.com
0.0.0.0 edge-liverail-shv-12-frc3.facebook.com
0.0.0.0 edge-liverail-shv-12-lla1.facebook.com
0.0.0.0 edge-liverail-shv-12-prn1.facebook.com
0.0.0.0 edge-liverail-shv-13-frc1.facebook.com
0.0.0.0 edge-liverail-shv-17-prn1.facebook.com
0.0.0.0 edge-liverail-shv-18-prn1.facebook.com
0.0.0.0 edge-mqtt-shv-01-ams2.facebook.com
0.0.0.0 edge-mqtt-shv-01-ams3.facebook.com
0.0.0.0 edge-mqtt-shv-01-ash5.facebook.com
0.0.0.0 edge-mqtt-shv-01-atl1.facebook.com
0.0.0.0 edge-mqtt-shv-01-bru2.facebook.com
0.0.0.0 edge-mqtt-shv-01-cai1.facebook.com
0.0.0.0 edge-mqtt-shv-01-cdg2.facebook.com
0.0.0.0 edge-mqtt-shv-01-dfw1.facebook.com
0.0.0.0 edge-mqtt-shv-01-fra3.facebook.com
0.0.0.0 edge-mqtt-shv-01-gru1.facebook.com
0.0.0.0 edge-mqtt-shv-01-hkg2.facebook.com
0.0.0.0 edge-mqtt-shv-01-iad3.facebook.com
0.0.0.0 edge-mqtt-shv-01-kul1.facebook.com
0.0.0.0 edge-mqtt-shv-01-lax1.facebook.com
0.0.0.0 edge-mqtt-shv-01-lga1.facebook.com
0.0.0.0 edge-mqtt-shv-01-lhr3.facebook.com
0.0.0.0 edge-mqtt-shv-01-mad1.facebook.com
0.0.0.0 edge-mqtt-shv-01-mia1.facebook.com
0.0.0.0 edge-mqtt-shv-01-mxp1.facebook.com
0.0.0.0 edge-mqtt-shv-01-nrt1.facebook.com
0.0.0.0 edge-mqtt-shv-01-ord1.facebook.com
0.0.0.0 edge-mqtt-shv-01-sea1.facebook.com
0.0.0.0 edge-mqtt-shv-01-sin1.facebook.com
0.0.0.0 edge-mqtt-shv-01-sjc2.facebook.com
0.0.0.0 edge-mqtt-shv-01-syd1.facebook.com
0.0.0.0 edge-mqtt-shv-01-tpe1.facebook.com
0.0.0.0 edge-mqtt-shv-01-vie1.facebook.com
0.0.0.0 edge-mqtt-shv-02-cai1.facebook.com
0.0.0.0 edge-mqtt-shv-02-hkg2.facebook.com
0.0.0.0 edge-mqtt-shv-03-ash5.facebook.com
0.0.0.0 edge-mqtt-shv-03-atn1.facebook.com
0.0.0.0 edge-mqtt-shv-03-hkg1.facebook.com
0.0.0.0 edge-mqtt-shv-03-lla1.facebook.com
0.0.0.0 edge-mqtt-shv-03-prn2.facebook.com
0.0.0.0 edge-mqtt-shv-03-xdc1.facebook.com
0.0.0.0 edge-mqtt-shv-04-hkg1.facebook.com
0.0.0.0 edge-mqtt-shv-04-prn2.facebook.com
0.0.0.0 edge-mqtt-shv-06-atn1.facebook.com
0.0.0.0 edge-mqtt-shv-06-lla1.facebook.com
0.0.0.0 edge-mqtt-shv-07-ash4.facebook.com
0.0.0.0 edge-mqtt-shv-07-frc3.facebook.com
0.0.0.0 edge-mqtt-shv-09-lla1.facebook.com
0.0.0.0 edge-mqtt-shv-12-frc1.facebook.com
0.0.0.0 edge-mqtt-shv-12-frc3.facebook.com
0.0.0.0 edge-mqtt-shv-12-lla1.facebook.com
0.0.0.0 edge-mqtt-shv-12-prn1.facebook.com
0.0.0.0 edge-mqtt-shv-13-frc1.facebook.com
0.0.0.0 edge-mqtt-shv-17-prn1.facebook.com
0.0.0.0 edge-mqtt-shv-18-prn1.facebook.com
0.0.0.0 edge-mqtt.facebook.com
0.0.0.0 edge-oculus-shv-01-lga3.fbcdn.net
0.0.0.0 edge-oculus-shv-01-mia3.fbcdn.net
0.0.0.0 edge-oculus-shv-01-sea1.fbcdn.net
0.0.0.0 edge-oculus-shv-01-sjc2.fbcdn.net
0.0.0.0 edge-oculus-shv-01-yyz1.fbcdn.net
0.0.0.0 edge-snaptu-http-p1-shv-01-ams3.facebook.com
0.0.0.0 edge-snaptu-http-p1-shv-01-atl1.facebook.com
0.0.0.0 edge-snaptu-http-p1-shv-01-bru2.facebook.com
0.0.0.0 edge-snaptu-http-p1-shv-01-cai1.facebook.com
0.0.0.0 edge-snaptu-http-p1-shv-01-cdg2.facebook.com
0.0.0.0 edge-snaptu-http-p1-shv-01-dfw1.facebook.com
0.0.0.0 edge-snaptu-http-p1-shv-01-fra3.facebook.com
0.0.0.0 edge-snaptu-http-p1-shv-01-gru1.facebook.com
0.0.0.0 edge-snaptu-http-p1-shv-01-iad3.facebook.com
0.0.0.0 edge-snaptu-http-p1-shv-01-kul1.facebook.com
0.0.0.0 edge-snaptu-http-p1-shv-01-lax1.facebook.com
0.0.0.0 edge-snaptu-http-p1-shv-01-lhr3.facebook.com
0.0.0.0 edge-snaptu-http-p1-shv-01-mad1.facebook.com
0.0.0.0 edge-snaptu-http-p1-shv-01-nrt1.facebook.com
0.0.0.0 edge-snaptu-http-p1-shv-01-ord1.facebook.com
0.0.0.0 edge-snaptu-http-p1-shv-01-sea1.facebook.com
0.0.0.0 edge-snaptu-http-p1-shv-01-syd1.facebook.com
0.0.0.0 edge-snaptu-http-p1-shv-02-cai1.facebook.com
0.0.0.0 edge-snaptu-tunnel-shv-01-ams3.facebook.com
0.0.0.0 edge-snaptu-tunnel-shv-01-ash5.facebook.com
0.0.0.0 edge-snaptu-tunnel-shv-01-atl1.facebook.com
0.0.0.0 edge-snaptu-tunnel-shv-01-bru2.facebook.com
0.0.0.0 edge-snaptu-tunnel-shv-01-cai1.facebook.com
0.0.0.0 edge-snaptu-tunnel-shv-01-cdg2.facebook.com
0.0.0.0 edge-snaptu-tunnel-shv-01-dfw1.facebook.com
0.0.0.0 edge-snaptu-tunnel-shv-01-fra3.facebook.com
0.0.0.0 edge-snaptu-tunnel-shv-01-gru1.facebook.com
0.0.0.0 edge-snaptu-tunnel-shv-01-hkg2.facebook.com
0.0.0.0 edge-snaptu-tunnel-shv-01-iad3.facebook.com
0.0.0.0 edge-snaptu-tunnel-shv-01-kul1.facebook.com
0.0.0.0 edge-snaptu-tunnel-shv-01-lax1.facebook.com
0.0.0.0 edge-snaptu-tunnel-shv-01-lhr3.facebook.com
0.0.0.0 edge-snaptu-tunnel-shv-01-mad1.facebook.com
0.0.0.0 edge-snaptu-tunnel-shv-01-nrt1.facebook.com
0.0.0.0 edge-snaptu-tunnel-shv-01-ord1.facebook.com
0.0.0.0 edge-snaptu-tunnel-shv-01-sea1.facebook.com
0.0.0.0 edge-snaptu-tunnel-shv-01-syd1.facebook.com
0.0.0.0 edge-snaptu-tunnel-shv-02-cai1.facebook.com
0.0.0.0 edge-sonar-mini-shv-01-bru2.fbcdn.net
0.0.0.0 edge-sonar-mini-shv-01-kul1.fbcdn.net
0.0.0.0 edge-sonar-mini-shv-01-lht6.fbcdn.net
0.0.0.0 edge-sonar-mini-shv-01-ord1.fbcdn.net
0.0.0.0 edge-sonar-mini-shv-01-ort2.fbcdn.net
0.0.0.0 edge-sonar-mini-shv-07-frc3.fbcdn.net
0.0.0.0 edge-sonar-shv-01-ams2.fbcdn.net
0.0.0.0 edge-sonar-shv-01-ams3.fbcdn.net
0.0.0.0 edge-sonar-shv-01-ash5.fbcdn.net
0.0.0.0 edge-sonar-shv-01-atl1.fbcdn.net
0.0.0.0 edge-sonar-shv-01-bru2.fbcdn.net
0.0.0.0 edge-sonar-shv-01-cai1.fbcdn.net
0.0.0.0 edge-sonar-shv-01-cdg2.fbcdn.net
0.0.0.0 edge-sonar-shv-01-dfw1.fbcdn.net
0.0.0.0 edge-sonar-shv-01-fra3.fbcdn.net
0.0.0.0 edge-sonar-shv-01-gru1.fbcdn.net
0.0.0.0 edge-sonar-shv-01-iad3.fbcdn.net
0.0.0.0 edge-sonar-shv-01-kul1.fbcdn.net
0.0.0.0 edge-sonar-shv-01-lax1.fbcdn.net
0.0.0.0 edge-sonar-shv-01-lga1.fbcdn.net
0.0.0.0 edge-sonar-shv-01-lhr3.fbcdn.net
0.0.0.0 edge-sonar-shv-01-mad1.fbcdn.net
0.0.0.0 edge-sonar-shv-01-mia1.fbcdn.net
0.0.0.0 edge-sonar-shv-01-mrs1.fbcdn.net
0.0.0.0 edge-sonar-shv-01-mxp1.fbcdn.net
0.0.0.0 edge-sonar-shv-01-nrt1.fbcdn.net
0.0.0.0 edge-sonar-shv-01-ord1.fbcdn.net
0.0.0.0 edge-sonar-shv-01-sea1.fbcdn.net
0.0.0.0 edge-sonar-shv-01-sin1.fbcdn.net
0.0.0.0 edge-sonar-shv-01-sjc2.fbcdn.net
0.0.0.0 edge-sonar-shv-01-syd1.fbcdn.net
0.0.0.0 edge-sonar-shv-01-tpe1.fbcdn.net
0.0.0.0 edge-sonar-shv-01-vie1.fbcdn.net
0.0.0.0 edge-sonar-shv-02-cai1.fbcdn.net
0.0.0.0 edge-sonar-shv-02-hkg2.fbcdn.net
0.0.0.0 edge-sonar-shv-03-ash5.fbcdn.net
0.0.0.0 edge-sonar-shv-03-atn1.fbcdn.net
0.0.0.0 edge-sonar-shv-03-hkg1.fbcdn.net
0.0.0.0 edge-sonar-shv-03-lla1.fbcdn.net
0.0.0.0 edge-sonar-shv-03-prn2.fbcdn.net
0.0.0.0 edge-sonar-shv-03-xdc1.fbcdn.net
0.0.0.0 edge-sonar-shv-04-hkg1.fbcdn.net
0.0.0.0 edge-sonar-shv-04-prn2.fbcdn.net
0.0.0.0 edge-sonar-shv-06-atn1.fbcdn.net
0.0.0.0 edge-sonar-shv-06-lla1.fbcdn.net
0.0.0.0 edge-sonar-shv-07-ash4.fbcdn.net
0.0.0.0 edge-sonar-shv-07-frc3.fbcdn.net
0.0.0.0 edge-sonar-shv-09-frc1.fbcdn.net
0.0.0.0 edge-sonar-shv-09-lla1.fbcdn.net
0.0.0.0 edge-sonar-shv-12-frc1.fbcdn.net
0.0.0.0 edge-sonar-shv-12-frc3.fbcdn.net
0.0.0.0 edge-sonar-shv-12-lla1.fbcdn.net
0.0.0.0 edge-sonar-shv-12-prn1.fbcdn.net
0.0.0.0 edge-sonar-shv-13-frc1.fbcdn.net
0.0.0.0 edge-sonar-shv-17-prn1.fbcdn.net
0.0.0.0 edge-sonar-shv-18-prn1.fbcdn.net
0.0.0.0 edge-star-shv-12-frc3.facebook.com
0.0.0.0 edge-video-shv-01-ams2.fbcdn.net
0.0.0.0 edge-video-shv-01-ams3.fbcdn.net
0.0.0.0 edge-video-shv-01-arn2.fbcdn.net
0.0.0.0 edge-video-shv-01-at13.fbcdn.net
0.0.0.0 edge-video-shv-01-atl3.fbcdn.net
0.0.0.0 edge-video-shv-01-bru2.fbcdn.net
0.0.0.0 edge-video-shv-01-cdg2.fbcdn.net
0.0.0.0 edge-video-shv-01-dft4.fbcdn.net
0.0.0.0 edge-video-shv-01-dfw1.fbcdn.net
0.0.0.0 edge-video-shv-01-dfw5.fbcdn.net
0.0.0.0 edge-video-shv-01-fra3.fbcdn.net
0.0.0.0 edge-video-shv-01-frt3.fbcdn.net
0.0.0.0 edge-video-shv-01-gru2.fbcdn.net
0.0.0.0 edge-video-shv-01-hkg3.fbcdn.net
0.0.0.0 edge-video-shv-01-iad3.fbcdn.net
0.0.0.0 edge-video-shv-01-kul1.fbcdn.net
0.0.0.0 edge-video-shv-01-kut2.fbcdn.net
0.0.0.0 edge-video-shv-01-lax3.fbcdn.net
0.0.0.0 edge-video-shv-01-lga1.fbcdn.net
0.0.0.0 edge-video-shv-01-lga3.fbcdn.net
0.0.0.0 edge-video-shv-01-lhr3.fbcdn.net
0.0.0.0 edge-video-shv-01-mia1.fbcdn.net
0.0.0.0 edge-video-shv-01-mia3.fbcdn.net
0.0.0.0 edge-video-shv-01-mrs1.fbcdn.net
0.0.0.0 edge-video-shv-01-nrt1.fbcdn.net
0.0.0.0 edge-video-shv-01-ord1.fbcdn.net
0.0.0.0 edge-video-shv-01-ort2.fbcdn.net
0.0.0.0 edge-video-shv-01-sea1.fbcdn.net
0.0.0.0 edge-video-shv-01-sin6.fbcdn.net
0.0.0.0 edge-video-shv-01-sit4.fbcdn.net
0.0.0.0 edge-video-shv-01-syd2.fbcdn.net
0.0.0.0 edge-video-shv-01-vie1.fbcdn.net
0.0.0.0 edge-video-shv-01-waw1.fbcdn.net
0.0.0.0 edge-video-shv-01-yyz1.fbcdn.net
0.0.0.0 edge-video-shv-02-dft4.fbcdn.net
0.0.0.0 edge-video-shv-02-sin6.fbcdn.net
0.0.0.0 edgeray-origin-shv-05-prn2.facebook.com
0.0.0.0 edgeray-origin-shv-07-lla1.facebook.com
0.0.0.0 edgeray-origin-shv-09-frc3.facebook.com
0.0.0.0 edgeray-origin-shv-11-frc3.facebook.com
0.0.0.0 edgeray-shv-01-ams2.facebook.com
0.0.0.0 edgeray-shv-01-ams3.facebook.com
0.0.0.0 edgeray-shv-01-atl1.facebook.com
0.0.0.0 edgeray-shv-01-bru2.facebook.com
0.0.0.0 edgeray-shv-01-cdg2.facebook.com
0.0.0.0 edgeray-shv-01-dfw1.facebook.com
0.0.0.0 edgeray-shv-01-fra3.facebook.com
0.0.0.0 edgeray-shv-01-gru1.facebook.com
0.0.0.0 edgeray-shv-01-iad3.facebook.com
0.0.0.0 edgeray-shv-01-kul1.facebook.com
0.0.0.0 edgeray-shv-01-lax1.facebook.com
0.0.0.0 edgeray-shv-01-lga1.facebook.com
0.0.0.0 edgeray-shv-01-lhr3.facebook.com
0.0.0.0 edgeray-shv-01-mad1.facebook.com
0.0.0.0 edgeray-shv-01-mia1.facebook.com
0.0.0.0 edgeray-shv-01-mxp1.facebook.com
0.0.0.0 edgeray-shv-01-ord1.facebook.com
0.0.0.0 edgeray-shv-01-sea1.facebook.com
0.0.0.0 edgeray-shv-01-sin1.facebook.com
0.0.0.0 edgeray-shv-01-sjc2.facebook.com
0.0.0.0 edgeray-shv-01-syd1.facebook.com
0.0.0.0 edgeray-shv-01-vie1.facebook.com
0.0.0.0 el-gr.facebook.com
0.0.0.0 elkjopnordic.m.facebook.com
0.0.0.0 en-gb.facebook.com
0.0.0.0 en-gb.th-th.fbjs.facebook.com
0.0.0.0 ent-a.xx.fbcdn.net
0.0.0.0 ent-b.xx.fbcdn.net
0.0.0.0 ent-c.xx.fbcdn.net
0.0.0.0 ent-d.xx.fbcdn.net
0.0.0.0 ent-e.xx.fbcdn.net
0.0.0.0 error.facebook.com
0.0.0.0 es-es.facebook.com
0.0.0.0 es-es.facebook.es
0.0.0.0 es-es.facebook.mx
0.0.0.0 es-la.es-es.de-de.fbjs.facebook.com
0.0.0.0 es-la.facebook.com
0.0.0.0 es.facebook.com
0.0.0.0 et-ee.facebook.com
0.0.0.0 external-cdt1-1.xx.fbcdn.net
0.0.0.0 external-frt3-2.xx.fbcdn.net
0.0.0.0 external-hkg3-1.xx.fbcdn.net
0.0.0.0 external-iad3-1.xx.fbcdn.net
0.0.0.0 external-ort2-1.xx.fbcdn.net
0.0.0.0 external.ak.fbcdn.net
0.0.0.0 external.fapa1-1.fna.fbcdn.net
0.0.0.0 external.fauh1-1.fna.fbcdn.net
0.0.0.0 external.fbkk10-1.fna.fbcdn.net
0.0.0.0 external.fbna1-1.fna.fbcdn.net
0.0.0.0 external.fbsb1-1.fna.fbcdn.net
0.0.0.0 external.fceb1-1.fna.fbcdn.net
0.0.0.0 external.fcmb1-1.fna.fbcdn.net
0.0.0.0 external.fdel11-1.fna.fbcdn.net
0.0.0.0 external.fdxb1-1.fna.fbcdn.net
0.0.0.0 external.ffor10-1.fna.fbcdn.net
0.0.0.0 external.fhan5-2.fna.fbcdn.net
0.0.0.0 external.fhfa1-1.fna.fbcdn.net
0.0.0.0 external.fhkg2-1.fna.fbcdn.net
0.0.0.0 external.fjnb1-1.fna.fbcdn.net
0.0.0.0 external.fkul10-1.fna.fbcdn.net
0.0.0.0 external.fkul8-1.fna.fbcdn.net
0.0.0.0 external.fmaa1-1.fna.fbcdn.net
0.0.0.0 external.fmex5-1.fna.fbcdn.net
0.0.0.0 external.fmnl10-1.fna.fbcdn.net
0.0.0.0 external.fpra1-1.fna.fbcdn.net
0.0.0.0 external.frec10-1.fna.fbcdn.net
0.0.0.0 external.fsdu10-1.fna.fbcdn.net
0.0.0.0 external.fsdu11-1.fna.fbcdn.net
0.0.0.0 external.fsea1-1.fna.fbcdn.net
0.0.0.0 external.fsjc1-2.fna.fbcdn.net
0.0.0.0 external.ftpa1-1.fna.fbcdn.net
0.0.0.0 external.fvit1-1.fna.fbcdn.net
0.0.0.0 f6eec677a80kdno4pyq-kxornjlf1521512613-sonar.xz.fbcdn.net
0.0.0.0 f91858abe80k2geylvi-zhianuzp1521559729-sonar.xx.fbcdn.net
0.0.0.0 fa-ir.facebook.com
0.0.0.0 facebook-studio.com
0.0.0.0 facebook-web-clients.appspot.com
0.0.0.0 facebook.be
0.0.0.0 facebook.com
0.0.0.0 facebook.com.facebook.com
0.0.0.0 facebook.de
0.0.0.0 facebook.dk
0.0.0.0 facebook.es
0.0.0.0 facebook.fr
0.0.0.0 facebook.is
0.0.0.0 facebook.it
0.0.0.0 facebook.jp
0.0.0.0 facebook.mx
0.0.0.0 facebook.nl
0.0.0.0 facebook.no
0.0.0.0 facebook.se
0.0.0.0 facebook.us
0.0.0.0 fb-lt.facebook.com
0.0.0.0 fb.com
0.0.0.0 fb.m.facebook.com
0.0.0.0 fb.me
0.0.0.0 fbcallback.wechat.com
0.0.0.0 fbcdn-creative-a.akamaihd.net
0.0.0.0 fbcdn-photos-a.akamaihd.net
0.0.0.0 fbcdn-photos-e-a.akamaihd.net
0.0.0.0 fbcdn-profile-a.akamaihd.net
0.0.0.0 fbcdn-sphotos-a-a.akamaihd.net
0.0.0.0 fbcdn-sphotos-a.akamaihd.net
0.0.0.0 fbcdn-sphotos-b-a.akamaihd.net
0.0.0.0 fbcdn-sphotos-c-a.akamaihd.net
0.0.0.0 fbcdn-sphotos-d-a.akamaihd.net
0.0.0.0 fbcdn-sphotos-e-a.akamaihd.net
0.0.0.0 fbcdn-sphotos-f-a.akamaihd.net
0.0.0.0 fbcdn-sphotos-g-a.akamaihd.net
0.0.0.0 fbcdn-sphotos-h-a.akamaihd.net
0.0.0.0 fbcdn-video-a-a.akamaihd.net
0.0.0.0 fbcdn-video-b-a.akamaihd.net
0.0.0.0 fbcdn-video-c-a.akamaihd.net
0.0.0.0 fbcdn-video-d-a.akamaihd.net
0.0.0.0 fbcdn-video-e-a.akamaihd.net
0.0.0.0 fbcdn-video-f-a.akamaihd.net
0.0.0.0 fbcdn-video-g-a.akamaihd.net
0.0.0.0 fbcdn-video-h-a.akamaihd.net
0.0.0.0 fbcdn-video-i-a.akamaihd.net
0.0.0.0 fbcdn-video-j-a.akamaihd.net
0.0.0.0 fbcdn-video-k-a.akamaihd.net
0.0.0.0 fbcdn-video-l-a.akamaihd.net
0.0.0.0 fbcdn-video-m-a.akamaihd.net
0.0.0.0 fbcdn-video-n-a.akamaihd.net
0.0.0.0 fbcdn-video-o-a.akamaihd.net
0.0.0.0 fbcdn-video-p-a.akamaihd.net
0.0.0.0 fbcdn-vthumb-a.akamaihd.net
0.0.0.0 fbcdn.com
0.0.0.0 fbcdn.net
0.0.0.0 fbexternal-a.akamaihd.net
0.0.0.0 fbjs.facebook.com
0.0.0.0 fbsbx.com
0.0.0.0 fbstatic-a.akamaihd.net
0.0.0.0 fbstatic.net
0.0.0.0 fdda274d380ki4frcgi-rumjfjai1460158783-sonar.xx.fbcdn.net
0.0.0.0 fi-fi.facebook.com
0.0.0.0 flex.m.facebook.com
0.0.0.0 flynorra.m.facebook.com
0.0.0.0 fmel2-1.fbcdn.net
0.0.0.0 fna-fbcdn-shv-01-fmaa1.fbcdn.net
0.0.0.0 fna-fbcdn-shv-02-fdet1.fbcdn.net
0.0.0.0 fna-fbcdn-shv-02-fsnc1.fbcdn.net
0.0.0.0 fna-fbcdn-video-shv-01-ffjr1.fbcdn.net
0.0.0.0 fna.fbcdn.net
0.0.0.0 fpt.m.facebook.com
0.0.0.0 fr-ca.facebook.com
0.0.0.0 fr-fr.facebook.com
0.0.0.0 fr-fr.facebook.fr
0.0.0.0 fr.facebook.com
0.0.0.0 free.beta.facebook.com
0.0.0.0 free.facebook.com
0.0.0.0 free.freebasics.com
0.0.0.0 free.internet.org
0.0.0.0 freebasics.com
0.0.0.0 generalelectric.m.facebook.com
0.0.0.0 gingerhotels.m.facebook.com
0.0.0.0 gob.m.facebook.com
0.0.0.0 google.m.facebook.com
0.0.0.0 govrequess.facebook.com
0.0.0.0 govtech.m.facebook.com
0.0.0.0 govtrequests.facebook.com
0.0.0.0 graph-video.facebook.com
0.0.0.0 graph.facebook.com
0.0.0.0 grupoboticario.m.facebook.com
0.0.0.0 h-ct-m-fbx.fbsbx.com.online-metrix.net
0.0.0.0 h.beta.facebook.com
0.0.0.0 h.facebook.com
0.0.0.0 hclinfosystems.m.facebook.com
0.0.0.0 he-il.facebook.com
0.0.0.0 herningrideklub.netscontent-a-ams.xx.fbcdn.net
0.0.0.0 hi-in.facebook.com
0.0.0.0 hootsuite.m.facebook.com
0.0.0.0 hphotos-sea1.fbcdn.net
0.0.0.0 hr-hr.facebook.com
0.0.0.0 hs.facebook.com
0.0.0.0 hu-hu.facebook.com
0.0.0.0 huawei.facebook.com
0.0.0.0 hunu.m.facebook.com
0.0.0.0 id-id.facebook.com
0.0.0.0 iictt.m.facebook.com
0.0.0.0 info.internet.org
0.0.0.0 intern.facebook.com
0.0.0.0 internet.org
0.0.0.0 investor.fb.com
0.0.0.0 inyour-slb-01-05-ash3.facebook.com
0.0.0.0 inyour.facebook.com
0.0.0.0 iphone.facebook.com
0.0.0.0 is-is.facebook.com
0.0.0.0 it-it.facebook.com
0.0.0.0 it.facebook.com
0.0.0.0 ja-jp.facebook.com
0.0.0.0 ja-jp.facebook.jp
0.0.0.0 ja-ks.facebook.com
0.0.0.0 jetairways.m.facebook.com
0.0.0.0 ka-ge.facebook.com
0.0.0.0 ko-kr.facebook.com
0.0.0.0 kyivstar.m.facebook.com
0.0.0.0 l.facebook.com
0.0.0.0 landmarkgroup.m.facebook.com
0.0.0.0 latest.facebook.com
0.0.0.0 leclerc.m.facebook.com
0.0.0.0 lists.facebook.com
0.0.0.0 lithium.facebook.com
0.0.0.0 liverail.c10r.facebook.com
0.0.0.0 lm.facebook.com
0.0.0.0 lntecc.m.facebook.com
0.0.0.0 lntinfotech.m.facebook.com
0.0.0.0 login.facebook.com
0.0.0.0 lookaside.facebook.com
0.0.0.0 lv-lv.facebook.com
0.0.0.0 m.facebook.com
0.0.0.0 m.me
0.0.0.0 mahindra.m.facebook.com
0.0.0.0 mbasic.facebook.com
0.0.0.0 meli.m.facebook.com
0.0.0.0 messages-facebook.com
0.0.0.0 messenger.com
0.0.0.0 mia1.fbcdn.net
0.0.0.0 microsoft.m.facebook.com
0.0.0.0 mietra-de.m.facebook.com
0.0.0.0 miroglio.m.facebook.com
0.0.0.0 mm.m.facebook.com
0.0.0.0 mobile.beta.facebook.com
0.0.0.0 mobile.facebook.com
0.0.0.0 moelven.m.facebook.com
0.0.0.0 mqtt-ig-p4.facebook.com
0.0.0.0 mqtt-mini.facebook.com
0.0.0.0 mqtt-p4.facebook.com
0.0.0.0 mqtt.c10r.facebook.com
0.0.0.0 mqtt.facebook.com
0.0.0.0 mqtt.vvv.facebook.com
0.0.0.0 ms-my.facebook.com
0.0.0.0 mtouch.facebook.com
0.0.0.0 national.facebook.com
0.0.0.0 nb-no.facebook.com
0.0.0.0 nb-no.facebook.no
0.0.0.0 ncontent.xx.fbcdn.net
0.0.0.0 newsec.facebook.com
0.0.0.0 newsroom.fb.com
0.0.0.0 nic.facebook.com
0.0.0.0 nike.m.facebook.com
0.0.0.0 nl-nl.facebook.com
0.0.0.0 nl.facebook.com
0.0.0.0 nokia.m.facebook.com
0.0.0.0 norcap.m.facebook.com
0.0.0.0 noroestecom.m.facebook.com
0.0.0.0 nova.facebook.com
0.0.0.0 ns1.facebook.com
0.0.0.0 ns2.facebook.com
0.0.0.0 ns3.facebook.com
0.0.0.0 nsa.facebook.com
0.0.0.0 ntp.facebook.com
0.0.0.0 o.beta.facebook.com
0.0.0.0 o.facebook.com
0.0.0.0 o.internet.org
0.0.0.0 ocbc.m.facebook.com
0.0.0.0 onepublicservice.m.facebook.com
0.0.0.0 onevedanta.m.facebook.com
0.0.0.0 orcart.facebook.com
0.0.0.0 origincache-ai-01-05-ash3.fbcdn.net
0.0.0.0 origincache-ash.t.fbcdn.net
0.0.0.0 origincache-frc.t.fbcdn.net
0.0.0.0 origincache-kb6-shv-10-frc1.fbcdn.net
0.0.0.0 origincache-lla.fbcdn.net
0.0.0.0 origincache-prn.t.fbcdn.net
0.0.0.0 origincache-shv-04-ash5.fbcdn.net
0.0.0.0 origincache-starfacebook-ai-01-05-ash3.facebook.com
0.0.0.0 origincache-tf.t.fbcdn.net
0.0.0.0 origincache-tl.t.fbcdn.net
0.0.0.0 origincache-xfa.fbcdn.net
0.0.0.0 origincache-xla.fbcdn.net
0.0.0.0 origincache-xtf.fbcdn.net
0.0.0.0 origincache-xtl.fbcdn.net
0.0.0.0 origincache-xx-shv-05-atn1.fbcdn.net
0.0.0.0 origincache-xx-shv-05-frc3.fbcdn.net
0.0.0.0 origincache-xx-shv-05-prn2.fbcdn.net
0.0.0.0 origincache-xx-shv-06-ash3.fbcdn.net
0.0.0.0 origincache-xx-shv-06-ash4.fbcdn.net
0.0.0.0 origincache-xx-shv-07-ash2.fbcdn.net
0.0.0.0 origincache-xx-shv-07-atn1.fbcdn.net
0.0.0.0 origincache-xx-shv-08-ash2.fbcdn.net
0.0.0.0 origincache-xx-shv-08-frc3.fbcdn.net
0.0.0.0 origincache-xx-shv-08-prn2.fbcdn.net
0.0.0.0 origincache-xx-shv-09-frc3.fbcdn.net
0.0.0.0 origincache-xx-shv-09-prn2.fbcdn.net
0.0.0.0 origincache-xx-shv-13-prn1.fbcdn.net
0.0.0.0 ouch.facebook.com
0.0.0.0 pacific.facebook.com
0.0.0.0 pernambucanas.m.facebook.com
0.0.0.0 photos-a-ord.xx.fbcdn.net
0.0.0.0 photos-a.ak.fbcdn.net
0.0.0.0 photos-a.xx.fbcdn.net
0.0.0.0 photos-b-ord.xx.fbcdn.net
0.0.0.0 photos-b.ak.fbcdn.net
0.0.0.0 photos-b.xx.fbcdn.net
0.0.0.0 photos-c.ak.fbcdn.net
0.0.0.0 photos-d.ak.fbcdn.net
0.0.0.0 photos-e.ak.fbcdn.net
0.0.0.0 photos-f.ak.fbcdn.net
0.0.0.0 photos-g.ak.fbcdn.net
0.0.0.0 photos-h.ak.fbcdn.net
0.0.0.0 photos-snc1.fbcdn.net
0.0.0.0 pl-pl.facebook.com
0.0.0.0 platform.foursquare.com
0.0.0.0 postmaster.facebook.com
0.0.0.0 prod.facebook.com
0.0.0.0 profile-a-atl.xx.fbcdn.net
0.0.0.0 profile-a-dfw.xx.fbcdn.net
0.0.0.0 profile-a-iad.xx.fbcdn.net
0.0.0.0 profile-a-lax.xx.fbcdn.net
0.0.0.0 profile-a-lga.xx.fbcdn.net
0.0.0.0 profile-a-mia.xx.fbcdn.net
0.0.0.0 profile-a-ord.xx.fbcdn.net
0.0.0.0 profile-a-sea.xx.fbcdn.net
0.0.0.0 profile-a-sjc.xx.fbcdn.net
0.0.0.0 profile-a.xx.fbcdn.net
0.0.0.0 profile-b-dfw.xx.fbcdn.net
0.0.0.0 profile-b-iad.xx.fbcdn.net
0.0.0.0 profile-b-lga.xx.fbcdn.net
0.0.0.0 profile-b-mia.xx.fbcdn.net
0.0.0.0 profile-b-ord.xx.fbcdn.net
0.0.0.0 profile-b-sjc.xx.fbcdn.net
0.0.0.0 profile-b.xx.fbcdn.net
0.0.0.0 profile.ak.facebook.com
0.0.0.0 profile.ak.facebook.com.edgesuite.net
0.0.0.0 profile.ak.fbcdn.net
0.0.0.0 profile.xx.fbcdn.net
0.0.0.0 promis.facebook.com
0.0.0.0 pt-br.facebook.com
0.0.0.0 pt-pt.facebook.com
0.0.0.0 rcn.m.facebook.com
0.0.0.0 rdg.facebook.com
0.0.0.0 register.facebook.com
0.0.0.0 rema.m.facebook.com
0.0.0.0 research.facebook.com
0.0.0.0 ro-ro.facebook.com
0.0.0.0 ru-ru.facebook.com
0.0.0.0 rupload.facebook.com
0.0.0.0 s-external.ak.fbcdn.net
0.0.0.0 s-static.ak.facebook.com
0.0.0.0 s-static.ak.facebook.com.edgekey.net
0.0.0.0 s-static.ak.fbcdn.net
0.0.0.0 s-static.facebook.com
0.0.0.0 sac-h-ct-m-fbx.fbsbx.com.online-metrix.net
0.0.0.0 saic-ak.facebook.com
0.0.0.0 savethechildren.m.facebook.com
0.0.0.0 scontent-1.2914.fna.fbcdn.net
0.0.0.0 scontent-2.2914.fna.fbcdn.net
0.0.0.0 scontent-a-ams.xx.fbcdn.net
0.0.0.0 scontent-a-atl.xx.fbcdn.net
0.0.0.0 scontent-a-cdg.xx.fbcdn.net
0.0.0.0 scontent-a-dfw.xx.fbcdn.net
0.0.0.0 scontent-a-fra.xx.fbcdn.net
0.0.0.0 scontent-a-gru.xx.fbcdn.net
0.0.0.0 scontent-a-iad.xx.fbcdn.net
0.0.0.0 scontent-a-lax.xx.fbcdn.net
0.0.0.0 scontent-a-lga.xx.fbcdn.net
0.0.0.0 scontent-a-lhr.xx.fbcdn.net
0.0.0.0 scontent-a-mad.xx.fbcdn.net
0.0.0.0 scontent-a-mia.xx.fbcdn.net
0.0.0.0 scontent-a-mxp.xx.fbcdn.net
0.0.0.0 scontent-a-ord.xx.fbcdn.net
0.0.0.0 scontent-a-pao.xx.fbcdn.net
0.0.0.0 scontent-a-sea.xx.fbcdn.net
0.0.0.0 scontent-a-sin.xx.fbcdn.net
0.0.0.0 scontent-a-sjc.xx.fbcdn.net
0.0.0.0 scontent-a-vie.xx.fbcdn.net
0.0.0.0 scontent-a.xx.fbcdn.net
0.0.0.0 scontent-ams.xx.fbcdn.net
0.0.0.0 scontent-amt2-1.xx.fbcdn.net
0.0.0.0 scontent-arn2-1.xx.fbcdn.net
0.0.0.0 scontent-atl.xx.fbcdn.net
0.0.0.0 scontent-b-ams.xx.fbcdn.net
0.0.0.0 scontent-b-atl.xx.fbcdn.net
0.0.0.0 scontent-b-cdg.xx.fbcdn.net
0.0.0.0 scontent-b-dfw.xx.fbcdn.net
0.0.0.0 scontent-b-fra.xx.fbcdn.net
0.0.0.0 scontent-b-gru.xx.fbcdn.net
0.0.0.0 scontent-b-hkg.xx.fbcdn.net
0.0.0.0 scontent-b-lax.xx.fbcdn.net
0.0.0.0 scontent-b-lga.xx.fbcdn.net
0.0.0.0 scontent-b-lhr.xx.fbcdn.net
0.0.0.0 scontent-b-mad.xx.fbcdn.net
0.0.0.0 scontent-b-mia.xx.fbcdn.net
0.0.0.0 scontent-b-mxp.xx.fbcdn.net
0.0.0.0 scontent-b-ord.xx.fbcdn.net
0.0.0.0 scontent-b-pao.xx.fbcdn.net
0.0.0.0 scontent-b-sea.xx.fbcdn.net
0.0.0.0 scontent-b-sin.xx.fbcdn.net
0.0.0.0 scontent-b-sjc.xx.fbcdn.net
0.0.0.0 scontent-b-vie.xx.fbcdn.net
0.0.0.0 scontent-b.xx.fbcdn.net
0.0.0.0 scontent-bom1-1.xx.fbcdn.net
0.0.0.0 scontent-c.xx.fbcdn.net
0.0.0.0 scontent-cdg.xx.fbcdn.net
0.0.0.0 scontent-cdg2-1.xx.fbcdn.net
0.0.0.0 scontent-cdt1-1.xx.fbcdn.net
0.0.0.0 scontent-d.xx.fbcdn.net
0.0.0.0 scontent-dfw.xx.fbcdn.net
0.0.0.0 scontent-dfw5-1.xx.fbcdn.net
0.0.0.0 scontent-e.xx.fbcdn.net
0.0.0.0 scontent-fra.xx.fbcdn.net
0.0.0.0 scontent-frt3-1.xx.fbcdn.net
0.0.0.0 scontent-frt3-2.xx.fbcdn.net
0.0.0.0 scontent-frx5-1.xx.fbcdn.net
0.0.0.0 scontent-gru.xx.fbcdn.net
0.0.0.0 scontent-hkg3-1.xx.fbcdn.net
0.0.0.0 scontent-hkg3-2.xx.fbcdn.net
0.0.0.0 scontent-iad3-1.xx.fbcdn.net
0.0.0.0 scontent-icn1-1.xx.fbcdn.net
0.0.0.0 scontent-lax.xx.fbcdn.net
0.0.0.0 scontent-lax3-1.xx.fbcdn.net
0.0.0.0 scontent-lax3-2.xx.fbcdn.net
0.0.0.0 scontent-lga.xx.fbcdn.net
0.0.0.0 scontent-lga3-1.xx.fbcdn.net
0.0.0.0 scontent-lhr.xx.fbcdn.net
0.0.0.0 scontent-lhr3-1.xx.fbcdn.net
0.0.0.0 scontent-lht6-1.xx.fbcdn.net
0.0.0.0 scontent-mia.xx.fbcdn.net
0.0.0.0 scontent-mxp.xx.fbcdn.net
0.0.0.0 scontent-nrt1-1.xx.fbcdn.net
0.0.0.0 scontent-ord.xx.fbcdn.net
0.0.0.0 scontent-otp1-1.xx.fbcdn.net
0.0.0.0 scontent-sea.xx.fbcdn.net
0.0.0.0 scontent-sea1-1.xx.fbcdn.net
0.0.0.0 scontent-sin.xx.fbcdn.net
0.0.0.0 scontent-sit4-1.xx.fbcdn.net
0.0.0.0 scontent-sjc.xx.fbcdn.net
0.0.0.0 scontent-sjc2-1.xx.fbcdn.net
0.0.0.0 scontent-sof1-1.xx.fbcdn.net
0.0.0.0 scontent-tpe1-1.xx.fbcdn.net
0.0.0.0 scontent-vie.xx.fbcdn.net
0.0.0.0 scontent-vie1-1.xx.fbcdn.net
0.0.0.0 scontent-waw1-1.xx.fbcdn.net
0.0.0.0 scontent.facc1-1.fna.fbcdn.net
0.0.0.0 scontent.fada1-1.fna.fbcdn.net
0.0.0.0 scontent.fada1-10.fna.fbcdn.net
0.0.0.0 scontent.fams1-2.fna.fbcdn.net
0.0.0.0 scontent.fapa1-1.fna.fbcdn.net
0.0.0.0 scontent.faqa1-1.fna.fbcdn.net
0.0.0.0 scontent.fbga1-1.fna.fbcdn.net
0.0.0.0 scontent.fbkk10-1.fna.fbcdn.net
0.0.0.0 scontent.fbkk11-1.fna.fbcdn.net
0.0.0.0 scontent.fbkk2-2.fna.fbcdn.net
0.0.0.0 scontent.fbkk2-4.fna.fbcdn.net
0.0.0.0 scontent.fbkk5-2.fna.fbcdn.net
0.0.0.0 scontent.fbma1-1.fna.fbcdn.net
0.0.0.0 scontent.fbna1-1.fna.fbcdn.net
0.0.0.0 scontent.fbom10-1.fna.fbcdn.net
0.0.0.0 scontent.fbom11-1.fna.fbcdn.net
0.0.0.0 scontent.fbru2-1.fna.fbcdn.net
0.0.0.0 scontent.fbsb1-1.fna.fbcdn.net
0.0.0.0 scontent.fbsb11-1.fna.fbcdn.net
0.0.0.0 scontent.fbze1-1.fna.fbcdn.net
0.0.0.0 scontent.fcac1-1.fna.fbcdn.net
0.0.0.0 scontent.fcbb1-1.fna.fbcdn.net
0.0.0.0 scontent.fceb1-1.fna.fbcdn.net
0.0.0.0 scontent.fcgb1-1.fna.fbcdn.net
0.0.0.0 scontent.fcgh10-1.fna.fbcdn.net
0.0.0.0 scontent.fcgh11-1.fna.fbcdn.net
0.0.0.0 scontent.fcgk10-1.fna.fbcdn.net
0.0.0.0 scontent.fcha1-1.fna.fbcdn.net
0.0.0.0 scontent.fcia1-1.fna.fbcdn.net
0.0.0.0 scontent.fcmb1-1.fna.fbcdn.net
0.0.0.0 scontent.fcpq5-1.fna.fbcdn.net
0.0.0.0 scontent.fcwb1-1.fna.fbcdn.net
0.0.0.0 scontent.fdac1-1.fna.fbcdn.net
0.0.0.0 scontent.fdac24-1.fna.fbcdn.net
0.0.0.0 scontent.fdel10-1.fna.fbcdn.net
0.0.0.0 scontent.fdel11-1.fna.fbcdn.net
0.0.0.0 scontent.fdla1-1.fna.fbcdn.net
0.0.0.0 scontent.fdnk1-1.fna.fbcdn.net
0.0.0.0 scontent.fdpa1-1.fna.fbcdn.net
0.0.0.0 scontent.fdsa1-1.fna.fbcdn.net
0.0.0.0 scontent.fdxb1-1.fna.fbcdn.net
0.0.0.0 scontent.febb1-1.fna.fbcdn.net
0.0.0.0 scontent.feoh1-1.fna.fbcdn.net
0.0.0.0 scontent.ffco3-1.fna.fbcdn.net
0.0.0.0 scontent.ffor10-1.fna.fbcdn.net
0.0.0.0 scontent.ffor11-1.fna.fbcdn.net
0.0.0.0 scontent.ffru1-1.fna.fbcdn.net
0.0.0.0 scontent.fgdl5-1.fna.fbcdn.net
0.0.0.0 scontent.fgua1-1.fna.fbcdn.net
0.0.0.0 scontent.fhel1-1.fna.fbcdn.net
0.0.0.0 scontent.fhel2-1.fna.fbcdn.net
0.0.0.0 scontent.fhel5-1.fna.fbcdn.net
0.0.0.0 scontent.fhen1-1.fna.fbcdn.net
0.0.0.0 scontent.fhfa1-1.fna.fbcdn.net
0.0.0.0 scontent.fhkg10-1.fna.fbcdn.net
0.0.0.0 scontent.fhkg2-1.fna.fbcdn.net
0.0.0.0 scontent.fhkg4-2.fna.fbcdn.net
0.0.0.0 scontent.fiev1-1.fna.fbcdn.net
0.0.0.0 scontent.fiev10-1.fna.fbcdn.net
0.0.0.0 scontent.fiev11-1.fna.fbcdn.net
0.0.0.0 scontent.fiev6-1.fna.fbcdn.net
0.0.0.0 scontent.fiev8-1.fna.fbcdn.net
0.0.0.0 scontent.fisb1-1.fna.fbcdn.net
0.0.0.0 scontent.fisb5-1.fna.fbcdn.net
0.0.0.0 scontent.fjib1-1.fna.fbcdn.net
0.0.0.0 scontent.fjnb1-1.fna.fbcdn.net
0.0.0.0 scontent.fjnb3-1.fna.fbcdn.net
0.0.0.0 scontent.fjpa1-1.fna.fbcdn.net
0.0.0.0 scontent.fkgf1-1.fna.fbcdn.net
0.0.0.0 scontent.fkhi10-1.fna.fbcdn.net
0.0.0.0 scontent.fkul10-1.fna.fbcdn.net
0.0.0.0 scontent.fkul11-1.fna.fbcdn.net
0.0.0.0 scontent.fkul4-1.fna.fbcdn.net
0.0.0.0 scontent.fkul8-1.fna.fbcdn.net
0.0.0.0 scontent.fkwi10-1.fna.fbcdn.net
0.0.0.0 scontent.flim1-2.fna.fbcdn.net
0.0.0.0 scontent.flim10-1.fna.fbcdn.net
0.0.0.0 scontent.flis1-1.fna.fbcdn.net
0.0.0.0 scontent.flpb1-1.fna.fbcdn.net
0.0.0.0 scontent.flwo1-1.fna.fbcdn.net
0.0.0.0 scontent.fmaa1-1.fna.fbcdn.net
0.0.0.0 scontent.fmba1-1.fna.fbcdn.net
0.0.0.0 scontent.fmdc1-1.fna.fbcdn.net
0.0.0.0 scontent.fmea1-1.fna.fbcdn.net
0.0.0.0 scontent.fmex10-1.fna.fbcdn.net
0.0.0.0 scontent.fmex11-1.fna.fbcdn.net
0.0.0.0 scontent.fmex5-1.fna.fbcdn.net
0.0.0.0 scontent.fmex8-2.fna.fbcdn.net
0.0.0.0 scontent.fmga1-1.fna.fbcdn.net
0.0.0.0 scontent.fmia1-1.fna.fbcdn.net
0.0.0.0 scontent.fmla1-1.fna.fbcdn.net
0.0.0.0 scontent.fmnl10-1.fna.fbcdn.net
0.0.0.0 scontent.fmnl11-1.fna.fbcdn.net
0.0.0.0 scontent.fmnl4-4.fna.fbcdn.net
0.0.0.0 scontent.fmnl6-1.fna.fbcdn.net
0.0.0.0 scontent.fosl1-1.fna.fbcdn.net
0.0.0.0 scontent.fpac1-1.fna.fbcdn.net
0.0.0.0 scontent.fpbc1-1.fna.fbcdn.net
0.0.0.0 scontent.fpbc2-1.fna.fbcdn.net
0.0.0.0 scontent.fpfb1-1.fna.fbcdn.net
0.0.0.0 scontent.fphl2-2.fna.fbcdn.net
0.0.0.0 scontent.fplu10-1.fna.fbcdn.net
0.0.0.0 scontent.fplu11-1.fna.fbcdn.net
0.0.0.0 scontent.fpoa1-1.fna.fbcdn.net
0.0.0.0 scontent.fpoa10-1.fna.fbcdn.net
0.0.0.0 scontent.fpoa11-1.fna.fbcdn.net
0.0.0.0 scontent.fpra1-1.fna.fbcdn.net
0.0.0.0 scontent.fqpa1-1.fna.fbcdn.net
0.0.0.0 scontent.frec10-1.fna.fbcdn.net
0.0.0.0 scontent.frec11-1.fna.fbcdn.net
0.0.0.0 scontent.fria1-1.fna.fbcdn.net
0.0.0.0 scontent.fsaw1-10.fna.fbcdn.net
0.0.0.0 scontent.fscl10-1.fna.fbcdn.net
0.0.0.0 scontent.fscl11-1.fna.fbcdn.net
0.0.0.0 scontent.fsdu10-1.fna.fbcdn.net
0.0.0.0 scontent.fsdu11-1.fna.fbcdn.net
0.0.0.0 scontent.fsea1-1.fna.fbcdn.net
0.0.0.0 scontent.fsjc1-2.fna.fbcdn.net
0.0.0.0 scontent.fsjo1-1.fna.fbcdn.net
0.0.0.0 scontent.fsnc1-1.fna.fbcdn.net
0.0.0.0 scontent.fssa1-1.fna.fbcdn.net
0.0.0.0 scontent.fssa10-1.fna.fbcdn.net
0.0.0.0 scontent.fssa11-1.fna.fbcdn.net
0.0.0.0 scontent.fsst1-2.fna.fbcdn.net
0.0.0.0 scontent.fsub1-1.fna.fbcdn.net
0.0.0.0 scontent.fszb1-1.fna.fbcdn.net
0.0.0.0 scontent.ftbs1-1.fna.fbcdn.net
0.0.0.0 scontent.ftbs4-1.fna.fbcdn.net
0.0.0.0 scontent.ftpa1-1.fna.fbcdn.net
0.0.0.0 scontent.ftpa1-2.fna.fbcdn.net
0.0.0.0 scontent.ftpe3-2.fna.fbcdn.net
0.0.0.0 scontent.ftpe4-1.fna.fbcdn.net
0.0.0.0 scontent.ftpe7-3.fna.fbcdn.net
0.0.0.0 scontent.ftpe7-4.fna.fbcdn.net
0.0.0.0 scontent.ftun3-1.fna.fbcdn.net
0.0.0.0 scontent.fuln6-1.fna.fbcdn.net
0.0.0.0 scontent.fvca1-1.fna.fbcdn.net
0.0.0.0 scontent.fwaw5-1.fna.fbcdn.net
0.0.0.0 scontent.fwbw1-1.fna.fbcdn.net
0.0.0.0 scontent.fybz2-2.fna.fbcdn.net
0.0.0.0 scontent.fymy1-2.fna.fbcdn.net
0.0.0.0 scontent.xx.fbcdn.net
0.0.0.0 scotiabank.m.facebook.com
0.0.0.0 secure-media-snc1.fbcdn.net
0.0.0.0 secure-media.fbcdn.net
0.0.0.0 secure-profile.facebook.com
0.0.0.0 secure.facebook.com
0.0.0.0 sitel.m.facebook.com
0.0.0.0 sk-sk.facebook.com
0.0.0.0 ski.m.facebook.com
0.0.0.0 snaptu-d-shv-05-frc3.facebook.com
0.0.0.0 snaptu-d-shv-10-frc1.facebook.com
0.0.0.0 snaptu-mini.facebook.com
0.0.0.0 snaptu-p1.facebook.com
0.0.0.0 snaptu-p2.facebook.com
0.0.0.0 softtech.m.facebook.com
0.0.0.0 sok.m.facebook.com
0.0.0.0 sonar.fbsb1-1.fna.fbcdn.net
0.0.0.0 sonar.fgua1-1.fna.fbcdn.net
0.0.0.0 sonar.fmaa1-1.fna.fbcdn.net
0.0.0.0 sonar.fsea1-1.fna.fbcdn.net
0.0.0.0 sonar.ftpa1-1.fna.fbcdn.net
0.0.0.0 sphotos-a-ams.xx.fbcdn.net
0.0.0.0 sphotos-a-atl.xx.fbcdn.net
0.0.0.0 sphotos-a-cdg.xx.fbcdn.net
0.0.0.0 sphotos-a-dfw.xx.fbcdn.net
0.0.0.0 sphotos-a-iad.xx.fbcdn.net
0.0.0.0 sphotos-a-lax.xx.fbcdn.net
0.0.0.0 sphotos-a-lga.xx.fbcdn.net
0.0.0.0 sphotos-a-lhr.xx.fbcdn.net
0.0.0.0 sphotos-a-mad.xx.fbcdn.net
0.0.0.0 sphotos-a-mia.xx.fbcdn.net
0.0.0.0 sphotos-a-mxp.xx.fbcdn.net
0.0.0.0 sphotos-a-ord.xx.fbcdn.net
0.0.0.0 sphotos-a-pao.xx.fbcdn.net
0.0.0.0 sphotos-a-sea.xx.fbcdn.net
0.0.0.0 sphotos-a-sjc.xx.fbcdn.net
0.0.0.0 sphotos-a-vie.xx.fbcdn.net
0.0.0.0 sphotos-a.ak.fbcdn.net
0.0.0.0 sphotos-a.xx.fbcdn.net
0.0.0.0 sphotos-b-ams.xx.fbcdn.net
0.0.0.0 sphotos-b-atl.xx.fbcdn.net
0.0.0.0 sphotos-b-cdg.xx.fbcdn.net
0.0.0.0 sphotos-b-dfw.xx.fbcdn.net
0.0.0.0 sphotos-b-iad.xx.fbcdn.net
0.0.0.0 sphotos-b-lax.xx.fbcdn.net
0.0.0.0 sphotos-b-lga.xx.fbcdn.net
0.0.0.0 sphotos-b-lhr.xx.fbcdn.net
0.0.0.0 sphotos-b-mad.xx.fbcdn.net
0.0.0.0 sphotos-b-mia.xx.fbcdn.net
0.0.0.0 sphotos-b-mxp.xx.fbcdn.net
0.0.0.0 sphotos-b-ord.xx.fbcdn.net
0.0.0.0 sphotos-b-pao.xx.fbcdn.net
0.0.0.0 sphotos-b-sea.xx.fbcdn.net
0.0.0.0 sphotos-b-sjc.xx.fbcdn.net
0.0.0.0 sphotos-b-vie.xx.fbcdn.net
0.0.0.0 sphotos-b.xx.fbcdn.net
0.0.0.0 sphotos-h.ak.fbcdn.net
0.0.0.0 sphotos.ak.fbcdn.net
0.0.0.0 sphotos.xx.fbcdn.net
0.0.0.0 sphotosbord.xx.fbcdn.net
0.0.0.0 sr-rs.facebook.com
0.0.0.0 srt.m.facebook.com
0.0.0.0 ssl.connect.facebook.com
0.0.0.0 ssl.facebook.com
0.0.0.0 stanleyblackanddecker.m.facebook.com
0.0.0.0 star-mini.c10r.facebook.com
0.0.0.0 star.c10r.facebook.com
0.0.0.0 star.facebook.com
0.0.0.0 static-ak.facebook.com
0.0.0.0 static.ak.connect.facebook.com
0.0.0.0 static.ak.facebook.com
0.0.0.0 static.ak.facebook.com.edgesuite.net
0.0.0.0 static.ak.fbcdn.net
0.0.0.0 static.facebook.com
0.0.0.0 static.fdel11-1.fna.fbcdn.net
0.0.0.0 static.fsea1-1.fna.fbcdn.net
0.0.0.0 static.thefacebook.com
0.0.0.0 static.xx.fbcdn.net
0.0.0.0 staticxx.facebook.com
0.0.0.0 stormberg.m.facebook.com
0.0.0.0 sv-se.facebook.com
0.0.0.0 sv-se.facebook.se
0.0.0.0 teem.m.facebook.com
0.0.0.0 telenor.m.facebook.com
0.0.0.0 th-th.facebook.com
0.0.0.0 timbrasil.m.facebook.com
0.0.0.0 tl-ph.facebook.com
0.0.0.0 touch.facebook.com
0.0.0.0 tr-tr.facebook.com
0.0.0.0 tr.facebook.com
0.0.0.0 trocglobal.m.facebook.com
0.0.0.0 uk2group.m.facebook.com
0.0.0.0 unicreativearts.m.facebook.com
0.0.0.0 upload.facebook.com
0.0.0.0 ustglobal.m.facebook.com
0.0.0.0 v4help.facebook.com
0.0.0.0 venteprivee.m.facebook.com
0.0.0.0 vi-vn.facebook.com
0.0.0.0 video-hkg3-1.xx.fbcdn.net
0.0.0.0 video-iad3-1.xx.fbcdn.net
0.0.0.0 video-sof1-1.xx.fbcdn.net
0.0.0.0 video.facc1-1.fna.fbcdn.net
0.0.0.0 video.fada1-10.fna.fbcdn.net
0.0.0.0 video.fapa1-1.fna.fbcdn.net
0.0.0.0 video.faqa1-1.fna.fbcdn.net
0.0.0.0 video.fbga1-1.fna.fbcdn.net
0.0.0.0 video.fbkk10-1.fna.fbcdn.net
0.0.0.0 video.fbru2-1.fna.fbcdn.net
0.0.0.0 video.fbsb1-1.fna.fbcdn.net
0.0.0.0 video.fcbb1-1.fna.fbcdn.net
0.0.0.0 video.fceb1-1.fna.fbcdn.net
0.0.0.0 video.fcgh10-1.fna.fbcdn.net
0.0.0.0 video.fcgh11-1.fna.fbcdn.net
0.0.0.0 video.fcmb1-1.fna.fbcdn.net
0.0.0.0 video.fdac1-1.fna.fbcdn.net
0.0.0.0 video.fdac24-1.fna.fbcdn.net
0.0.0.0 video.fdel11-1.fna.fbcdn.net
0.0.0.0 video.fdxb1-1.fna.fbcdn.net
0.0.0.0 video.fevn1-1.fna.fbcdn.net
0.0.0.0 video.ffjr1-3.fna.fbcdn.net
0.0.0.0 video.ffor10-1.fna.fbcdn.net
0.0.0.0 video.ffor11-1.fna.fbcdn.net
0.0.0.0 video.fhfa1-1.fna.fbcdn.net
0.0.0.0 video.fiev10-1.fna.fbcdn.net
0.0.0.0 video.fjpa1-1.fna.fbcdn.net
0.0.0.0 video.fkhi10-1.fna.fbcdn.net
0.0.0.0 video.flpb1-1.fna.fbcdn.net
0.0.0.0 video.fmaa1-1.fna.fbcdn.net
0.0.0.0 video.fmdc1-1.fna.fbcdn.net
0.0.0.0 video.fmex10-1.fna.fbcdn.net
0.0.0.0 video.fmia1-1.fna.fbcdn.net
0.0.0.0 video.fmla1-1.fna.fbcdn.net
0.0.0.0 video.fmnl10-1.fna.fbcdn.net
0.0.0.0 video.fphx1-1.fbcdn.net
0.0.0.0 video.fpoa1-1.fna.fbcdn.net
0.0.0.0 video.fpoa10-1.fna.fbcdn.net
0.0.0.0 video.fpoa11-1.fna.fbcdn.net
0.0.0.0 video.fpra1-1.fna.fbcdn.net
0.0.0.0 video.fria1-1.fna.fbcdn.net
0.0.0.0 video.fsaw1-10.fna.fbcdn.net
0.0.0.0 video.fscl10-1.fna.fbcdn.net
0.0.0.0 video.fscl11-1.fna.fbcdn.net
0.0.0.0 video.fsdu10-1.fna.fbcdn.net
0.0.0.0 video.fsdu11-1.fna.fbcdn.net
0.0.0.0 video.fsea1-1.fna.fbcdn.net
0.0.0.0 video.fsnc1-1.fna.fbcdn.net
0.0.0.0 video.fssa1-1.fna.fbcdn.net
0.0.0.0 video.fssa10-1.fna.fbcdn.net
0.0.0.0 video.ftpa1-1.fna.fbcdn.net
0.0.0.0 video.fvit1-1.fna.fbcdn.net
0.0.0.0 video.xx.fbcdn.net
0.0.0.0 vpn.tfbnw.net
0.0.0.0 vthumb.ak.fbcdn.net
0.0.0.0 vthumb.xx.fbcdn.net
0.0.0.0 vupload.facebook.com
0.0.0.0 vupload2.vvv.facebook.com
0.0.0.0 w.facebook.com
0.0.0.0 web.beta.facebook.com
0.0.0.0 web.facebook.com
0.0.0.0 webdav.facebook.com
0.0.0.0 wooga.m.facebook.com
0.0.0.0 work-98949980.facebook.com
0.0.0.0 ww.facebook.com
0.0.0.0 www.connect.facebook.net
0.0.0.0 www.facebook.be
0.0.0.0 www.facebook.com
0.0.0.0 www.facebook.de
0.0.0.0 www.facebook.dk
0.0.0.0 www.facebook.es
0.0.0.0 www.facebook.fr
0.0.0.0 www.facebook.is
0.0.0.0 www.facebook.it
0.0.0.0 www.facebook.jp
0.0.0.0 www.facebook.mx
0.0.0.0 www.facebook.nl
0.0.0.0 www.facebook.no
0.0.0.0 www.facebook.se
0.0.0.0 www.facebook.us
0.0.0.0 www.fbcdn.com
0.0.0.0 www.fbcdn.net
0.0.0.0 www.graph.facebook.com
0.0.0.0 www.login.facebook.com
0.0.0.0 www.prod.facebook.com
0.0.0.0 www.s-static.ak.facebook.com
0.0.0.0 www.static.ak.connect.facebook.com
0.0.0.0 www.static.ak.fbcdn.net
0.0.0.0 www2.facebook.com
0.0.0.0 wwww.facebook.com
0.0.0.0 x.facebook.com
0.0.0.0 xx-fbcdn-ecmp-02-atl1.fbcdn.net
0.0.0.0 xx-fbcdn-ecmp-02-ord1.fbcdn.net
0.0.0.0 xx-fbcdn-ecmp-04-sjc1.fbcdn.net
0.0.0.0 xx-fbcdn-ecmp-05-iad1.fbcdn.net
0.0.0.0 xx-fbcdn-shv-01-ams2.fbcdn.net
0.0.0.0 xx-fbcdn-shv-01-ams3.fbcdn.net
0.0.0.0 xx-fbcdn-shv-01-amt2.fbcdn.net
0.0.0.0 xx-fbcdn-shv-01-arn2.fbcdn.net
0.0.0.0 xx-fbcdn-shv-01-ash5.fbcdn.net
0.0.0.0 xx-fbcdn-shv-01-atl1.fbcdn.net
0.0.0.0 xx-fbcdn-shv-01-atl3.fbcdn.net
0.0.0.0 xx-fbcdn-shv-01-bog1.fbcdn.net
0.0.0.0 xx-fbcdn-shv-01-bom1.fbcdn.net
0.0.0.0 xx-fbcdn-shv-01-bru2.fbcdn.net
0.0.0.0 xx-fbcdn-shv-01-cai1.fbcdn.net
0.0.0.0 xx-fbcdn-shv-01-cdg2.fbcdn.net
0.0.0.0 xx-fbcdn-shv-01-dft4.fbcdn.net
0.0.0.0 xx-fbcdn-shv-01-dfw1.fbcdn.net
0.0.0.0 xx-fbcdn-shv-01-dfw5.fbcdn.net
0.0.0.0 xx-fbcdn-shv-01-eze1.fbcdn.net
0.0.0.0 xx-fbcdn-shv-01-fra3.fbcdn.net
0.0.0.0 xx-fbcdn-shv-01-frt3.fbcdn.net
0.0.0.0 xx-fbcdn-shv-01-gru1.fbcdn.net
0.0.0.0 xx-fbcdn-shv-01-gru2.fbcdn.net
0.0.0.0 xx-fbcdn-shv-01-hkg1.fbcdn.net
0.0.0.0 xx-fbcdn-shv-01-hkg2.fbcdn.net
0.0.0.0 xx-fbcdn-shv-01-hkg3.fbcdn.net
0.0.0.0 xx-fbcdn-shv-01-iad3.fbcdn.net
0.0.0.0 xx-fbcdn-shv-01-icn1.fbcdn.net
0.0.0.0 xx-fbcdn-shv-01-kul1.fbcdn.net
0.0.0.0 xx-fbcdn-shv-01-kut2.fbcdn.net
0.0.0.0 xx-fbcdn-shv-01-lax1.fbcdn.net
0.0.0.0 xx-fbcdn-shv-01-lax3.fbcdn.net
0.0.0.0 xx-fbcdn-shv-01-lga1.fbcdn.net
0.0.0.0 xx-fbcdn-shv-01-lga3.fbcdn.net
0.0.0.0 xx-fbcdn-shv-01-lhr3.fbcdn.net
0.0.0.0 xx-fbcdn-shv-01-lht6.fbcdn.net
0.0.0.0 xx-fbcdn-shv-01-mad1.fbcdn.net
0.0.0.0 xx-fbcdn-shv-01-mia1.fbcdn.net
0.0.0.0 xx-fbcdn-shv-01-mia3.fbcdn.net
0.0.0.0 xx-fbcdn-shv-01-mrs1.fbcdn.net
0.0.0.0 xx-fbcdn-shv-01-mxp1.fbcdn.net
0.0.0.0 xx-fbcdn-shv-01-nrt1.fbcdn.net
0.0.0.0 xx-fbcdn-shv-01-ord1.fbcdn.net
0.0.0.0 xx-fbcdn-shv-01-ort2.fbcdn.net
0.0.0.0 xx-fbcdn-shv-01-scl1.fbcdn.net
0.0.0.0 xx-fbcdn-shv-01-sea1.fbcdn.net
0.0.0.0 xx-fbcdn-shv-01-sin1.fbcdn.net
0.0.0.0 xx-fbcdn-shv-01-sin6.fbcdn.net
0.0.0.0 xx-fbcdn-shv-01-sit4.fbcdn.net
0.0.0.0 xx-fbcdn-shv-01-sjc2.fbcdn.net
0.0.0.0 xx-fbcdn-shv-01-syd2.fbcdn.net
0.0.0.0 xx-fbcdn-shv-01-tpe1.fbcdn.net
0.0.0.0 xx-fbcdn-shv-01-vie1.fbcdn.net
0.0.0.0 xx-fbcdn-shv-01-waw1.fbcdn.net
0.0.0.0 xx-fbcdn-shv-01-yyz1.fbcdn.net
0.0.0.0 xx-fbcdn-shv-02-ams2.fbcdn.net
0.0.0.0 xx-fbcdn-shv-02-cai1.fbcdn.net
0.0.0.0 xx-fbcdn-shv-02-dft4.fbcdn.net
0.0.0.0 xx-fbcdn-shv-02-frt3.fbcdn.net
0.0.0.0 xx-fbcdn-shv-02-hkg1.fbcdn.net
0.0.0.0 xx-fbcdn-shv-02-hkg3.fbcdn.net
0.0.0.0 xx-fbcdn-shv-02-lax3.fbcdn.net
0.0.0.0 xx-fbcdn-shv-02-mia1.fbcdn.net
0.0.0.0 xx-fbcdn-shv-02-mia3.fbcdn.net
0.0.0.0 xx-fbcdn-shv-02-ord1.fbcdn.net
0.0.0.0 xx-fbcdn-shv-02-ort2.fbcdn.net
0.0.0.0 xx-fbcdn-shv-02-sin6.fbcdn.net
0.0.0.0 xx-fbcdn-shv-03-ash5.fbcdn.net
0.0.0.0 xx-fbcdn-shv-03-atn1.fbcdn.net
0.0.0.0 xx-fbcdn-shv-03-lax1.fbcdn.net
0.0.0.0 xx-fbcdn-shv-03-sin1.fbcdn.net
0.0.0.0 xx-fbcdn-shv-04-hkg1.fbcdn.net
0.0.0.0 xx-fbcdn-shv-04-lax1.fbcdn.net
0.0.0.0 xx-fbcdn-shv-04-prn2.fbcdn.net
0.0.0.0 xx-fbcdn-shv-04-sjc1.fbcdn.net
0.0.0.0 xx-fbcdn-shv-05-dfw1.fbcdn.net
0.0.0.0 xx-fbcdn-shv-05-iad1.fbcdn.net
0.0.0.0 xx-fbcdn-shv-05-mia1.fbcdn.net
0.0.0.0 xx-fbcdn-shv-06-dfw1.fbcdn.net
0.0.0.0 xx-fbcdn-shv-06-lga1.fbcdn.net
0.0.0.0 xx-fbcdn-shv-11-lhr3.fbcdn.net
0.0.0.0 xx-fbcdn6-shv-01-atl3.fbcdn.net
0.0.0.0 xx-fbcdn6-shv-01-lax3.fbcdn.net
0.0.0.0 z-1-external.fsea1-1.fna.fbcdn.net
0.0.0.0 z-1-scontent-sjc2-1.xx.fbcdn.net
0.0.0.0 z-1-scontent.fmaa1-1.fna.fbcdn.net
0.0.0.0 z-1-scontent.fpoa10-1.fna.fbcdn.net
0.0.0.0 z-1-scontent.xx.fbcdn.net
0.0.0.0 z-1-video.fpoa10-1.fna.fbcdn.net
0.0.0.0 z-1-video.fszb1-1.fna.fbcdn.net
0.0.0.0 z-1.c10r.facebook.com
0.0.0.0 z-1.facebook.com
0.0.0.0 z-m-api.facebook.com
0.0.0.0 z-m-fbcdn-mini-shv-01-ord1.fbcdn.net
0.0.0.0 z-m-fbcdn-shv-01-frt3.fbcdn.net
0.0.0.0 z-m-graph.facebook.com
0.0.0.0 z-m-scontent-ams.xx.fbcdn.net
0.0.0.0 z-m-scontent-amt.xx.fbcdn.net
0.0.0.0 z-m-scontent-arn.xx.fbcdn.net
0.0.0.0 z-m-scontent-atl.xx.fbcdn.net
0.0.0.0 z-m-scontent-bog.xx.fbcdn.net
0.0.0.0 z-m-scontent-bom.xx.fbcdn.net
0.0.0.0 z-m-scontent-bru.xx.fbcdn.net
0.0.0.0 z-m-scontent-cai.xx.fbcdn.net
0.0.0.0 z-m-scontent-cdg.xx.fbcdn.net
0.0.0.0 z-m-scontent-cdt.xx.fbcdn.net
0.0.0.0 z-m-scontent-dft.xx.fbcdn.net
0.0.0.0 z-m-scontent-eze.xx.fbcdn.net
0.0.0.0 z-m-scontent-frt.xx.fbcdn.net
0.0.0.0 z-m-scontent-gru.xx.fbcdn.net
0.0.0.0 z-m-scontent-hkg.xx.fbcdn.net
0.0.0.0 z-m-scontent-iad.xx.fbcdn.net
0.0.0.0 z-m-scontent-icn.xx.fbcdn.net
0.0.0.0 z-m-scontent-kut.xx.fbcdn.net
0.0.0.0 z-m-scontent-lax.xx.fbcdn.net
0.0.0.0 z-m-scontent-lga.xx.fbcdn.net
0.0.0.0 z-m-scontent-lhr.xx.fbcdn.net
0.0.0.0 z-m-scontent-lht.xx.fbcdn.net
0.0.0.0 z-m-scontent-mad.xx.fbcdn.net
0.0.0.0 z-m-scontent-mia.xx.fbcdn.net
0.0.0.0 z-m-scontent-mrs.xx.fbcdn.net
0.0.0.0 z-m-scontent-mxp.xx.fbcdn.net
0.0.0.0 z-m-scontent-nrt.xx.fbcdn.net
0.0.0.0 z-m-scontent-ort.xx.fbcdn.net
0.0.0.0 z-m-scontent-scl.xx.fbcdn.net
0.0.0.0 z-m-scontent-sin.xx.fbcdn.net
0.0.0.0 z-m-scontent-sit.xx.fbcdn.net
0.0.0.0 z-m-scontent-sjc.xx.fbcdn.net
0.0.0.0 z-m-scontent-sof.xx.fbcdn.net
0.0.0.0 z-m-scontent-syd.xx.fbcdn.net
0.0.0.0 z-m-scontent-tpe.xx.fbcdn.net
0.0.0.0 z-m-scontent-vie.xx.fbcdn.net
0.0.0.0 z-m-scontent-waw.xx.fbcdn.net
0.0.0.0 z-m-scontent-yyz.xx.fbcdn.net
0.0.0.0 z-m-scontent.fceb1-1.fna.fbcdn.net
0.0.0.0 z-m-scontent.fdac1-1.fna.fbcdn.net
0.0.0.0 z-m-scontent.fmex10-1.fna.fbcdn.net
0.0.0.0 z-m-scontent.xx.fbcdn.net
0.0.0.0 z-m-static-ams.xx.fbcdn.net
0.0.0.0 z-m-static-amt.xx.fbcdn.net
0.0.0.0 z-m-static-arn.xx.fbcdn.net
0.0.0.0 z-m-static-atl.xx.fbcdn.net
0.0.0.0 z-m-static-bog.xx.fbcdn.net
0.0.0.0 z-m-static-bom.xx.fbcdn.net
0.0.0.0 z-m-static-bru.xx.fbcdn.net
0.0.0.0 z-m-static-cai.xx.fbcdn.net
0.0.0.0 z-m-static-cdg.xx.fbcdn.net
0.0.0.0 z-m-static-cdt.xx.fbcdn.net
0.0.0.0 z-m-static-dft.xx.fbcdn.net
0.0.0.0 z-m-static-eze.xx.fbcdn.net
0.0.0.0 z-m-static-frt.xx.fbcdn.net
0.0.0.0 z-m-static-gru.xx.fbcdn.net
0.0.0.0 z-m-static-hkg.xx.fbcdn.net
0.0.0.0 z-m-static-iad.xx.fbcdn.net
0.0.0.0 z-m-static-icn.xx.fbcdn.net
0.0.0.0 z-m-static-kut.xx.fbcdn.net
0.0.0.0 z-m-static-lax.xx.fbcdn.net
0.0.0.0 z-m-static-lga.xx.fbcdn.net
0.0.0.0 z-m-static-lhr.xx.fbcdn.net
0.0.0.0 z-m-static-lht.xx.fbcdn.net
0.0.0.0 z-m-static-mad.xx.fbcdn.net
0.0.0.0 z-m-static-mia.xx.fbcdn.net
0.0.0.0 z-m-static-mrs.xx.fbcdn.net
0.0.0.0 z-m-static-mxp.xx.fbcdn.net
0.0.0.0 z-m-static-nrt.xx.fbcdn.net
0.0.0.0 z-m-static-ort.xx.fbcdn.net
0.0.0.0 z-m-static-scl.xx.fbcdn.net
0.0.0.0 z-m-static-sin.xx.fbcdn.net
0.0.0.0 z-m-static-sit.xx.fbcdn.net
0.0.0.0 z-m-static-sjc.xx.fbcdn.net
0.0.0.0 z-m-static-sof.xx.fbcdn.net
0.0.0.0 z-m-static-syd.xx.fbcdn.net
0.0.0.0 z-m-static-tpe.xx.fbcdn.net
0.0.0.0 z-m-static-vie.xx.fbcdn.net
0.0.0.0 z-m-static-waw.xx.fbcdn.net
0.0.0.0 z-m-static-yyz.xx.fbcdn.net
0.0.0.0 z-m-static.xx.fbcdn.net
0.0.0.0 z-m-video-ams.xx.fbcdn.net
0.0.0.0 z-m-video-amt.xx.fbcdn.net
0.0.0.0 z-m-video-arn.xx.fbcdn.net
0.0.0.0 z-m-video-atl.xx.fbcdn.net
0.0.0.0 z-m-video-bog.xx.fbcdn.net
0.0.0.0 z-m-video-bom.xx.fbcdn.net
0.0.0.0 z-m-video-bru.xx.fbcdn.net
0.0.0.0 z-m-video-cai.xx.fbcdn.net
0.0.0.0 z-m-video-cdg.xx.fbcdn.net
0.0.0.0 z-m-video-cdt.xx.fbcdn.net
0.0.0.0 z-m-video-dft.xx.fbcdn.net
0.0.0.0 z-m-video-eze.xx.fbcdn.net
0.0.0.0 z-m-video-frt.xx.fbcdn.net
0.0.0.0 z-m-video-gru.xx.fbcdn.net
0.0.0.0 z-m-video-hkg.xx.fbcdn.net
0.0.0.0 z-m-video-iad.xx.fbcdn.net
0.0.0.0 z-m-video-icn.xx.fbcdn.net
0.0.0.0 z-m-video-kut.xx.fbcdn.net
0.0.0.0 z-m-video-lax.xx.fbcdn.net
0.0.0.0 z-m-video-lga.xx.fbcdn.net
0.0.0.0 z-m-video-lhr.xx.fbcdn.net
0.0.0.0 z-m-video-lht.xx.fbcdn.net
0.0.0.0 z-m-video-mad.xx.fbcdn.net
0.0.0.0 z-m-video-mia.xx.fbcdn.net
0.0.0.0 z-m-video-mrs.xx.fbcdn.net
0.0.0.0 z-m-video-mxp.xx.fbcdn.net
0.0.0.0 z-m-video-nrt.xx.fbcdn.net
0.0.0.0 z-m-video-ort.xx.fbcdn.net
0.0.0.0 z-m-video-scl.xx.fbcdn.net
0.0.0.0 z-m-video-sin.xx.fbcdn.net
0.0.0.0 z-m-video-sit.xx.fbcdn.net
0.0.0.0 z-m-video-sjc.xx.fbcdn.net
0.0.0.0 z-m-video-sof.xx.fbcdn.net
0.0.0.0 z-m-video-syd.xx.fbcdn.net
0.0.0.0 z-m-video-tpe.xx.fbcdn.net
0.0.0.0 z-m-video-vie.xx.fbcdn.net
0.0.0.0 z-m-video-waw.xx.fbcdn.net
0.0.0.0 z-m-video-yyz.xx.fbcdn.net
0.0.0.0 z-m-www.facebook.com
0.0.0.0 z-m.c10r.facebook.com
0.0.0.0 z-m.facebook.com
0.0.0.0 z-p1-api.facebook.com
0.0.0.0 z-p1-graph.facebook.com
0.0.0.0 z-p1-upload.facebook.com
0.0.0.0 z-p1.facebook.com
0.0.0.0 z-p3-api.facebook.com
0.0.0.0 z-p3-external.fmdc1-1.fna.fbcdn.net
0.0.0.0 z-p3-external.fsdu11-1.fna.fbcdn.net
0.0.0.0 z-p3-external.fsea1-1.fna.fbcdn.net
0.0.0.0 z-p3-graph.facebook.com
0.0.0.0 z-p3-rupload.facebook.com
0.0.0.0 z-p3-scontent-lax3-1.xx.fbcdn.net
0.0.0.0 z-p3-scontent.facc1-1.fna.fbcdn.net
0.0.0.0 z-p3-scontent.faqa1-1.fna.fbcdn.net
0.0.0.0 z-p3-scontent.fbga1-1.fna.fbcdn.net
0.0.0.0 z-p3-scontent.fbsb1-1.fna.fbcdn.net
0.0.0.0 z-p3-scontent.fbsb11-1.fna.fbcdn.net
0.0.0.0 z-p3-scontent.fcgh11-1.fna.fbcdn.net
0.0.0.0 z-p3-scontent.fdac1-1.fna.fbcdn.net
0.0.0.0 z-p3-scontent.fdxb1-1.fna.fbcdn.net
0.0.0.0 z-p3-scontent.ffor10-1.fna.fbcdn.net
0.0.0.0 z-p3-scontent.ffor11-1.fna.fbcdn.net
0.0.0.0 z-p3-scontent.fjpa1-1.fna.fbcdn.net
0.0.0.0 z-p3-scontent.fmga1-1.fna.fbcdn.net
0.0.0.0 z-p3-scontent.fmnl10-1.fna.fbcdn.net
0.0.0.0 z-p3-scontent.fpfb1-1.fna.fbcdn.net
0.0.0.0 z-p3-scontent.fplu11-1.fna.fbcdn.net
0.0.0.0 z-p3-scontent.frec11-1.fna.fbcdn.net
0.0.0.0 z-p3-scontent.fsdu10-1.fna.fbcdn.net
0.0.0.0 z-p3-scontent.fsdu11-1.fna.fbcdn.net
0.0.0.0 z-p3-scontent.fsea1-1.fna.fbcdn.net
0.0.0.0 z-p3-scontent.fsub1-1.fna.fbcdn.net
0.0.0.0 z-p3-scontent.ftpa1-1.fna.fbcdn.net
0.0.0.0 z-p3-upload.facebook.com
0.0.0.0 z-p3-video-vie1-1.xx.fbcdn.net
0.0.0.0 z-p3-video.flpb1-1.fna.fbcdn.net
0.0.0.0 z-p3-video.fpfb1-1.fna.fbcdn.net
0.0.0.0 z-p3-video.fsea1-1.fna.fbcdn.net
0.0.0.0 z-p3.facebook.com
0.0.0.0 z-p4-api.facebook.com
0.0.0.0 z-p4-graph.facebook.com
0.0.0.0 z-p4-rupload.facebook.com
0.0.0.0 z-p4-upload.facebook.com
0.0.0.0 z-p4.facebook.com
0.0.0.0 z-upload.facebook.com
0.0.0.0 z.facebook.com
0.0.0.0 zero.beta.facebook.com
0.0.0.0 zero.facebook.com
0.0.0.0 zero.freebasics.com
0.0.0.0 zero.internet.org
0.0.0.0 zh-cn.facebook.com
0.0.0.0 zh-hk.facebook.com
0.0.0.0 zh-tw.facebook.com

# Instagram
0.0.0.0 api.instagram.com
0.0.0.0 badges.instagram.com
0.0.0.0 black.ish.instagram.com
0.0.0.0 business.instagram.com
0.0.0.0 engineering.instagram.com
0.0.0.0 help.instagram.com
0.0.0.0 i.instagram.com
0.0.0.0 images.instagram.com
0.0.0.0 instagram-shv-01-ams2.fbcdn.net
0.0.0.0 instagram-shv-01-ams3.fbcdn.net
0.0.0.0 instagram-shv-01-ash5.fbcdn.net
0.0.0.0 instagram-shv-01-atl1.fbcdn.net
0.0.0.0 instagram-shv-01-bru2.fbcdn.net
0.0.0.0 instagram-shv-01-cai1.fbcdn.net
0.0.0.0 instagram-shv-01-cdg2.fbcdn.net
0.0.0.0 instagram-shv-01-dfw1.fbcdn.net
0.0.0.0 instagram-shv-01-fra3.fbcdn.net
0.0.0.0 instagram-shv-01-gru1.fbcdn.net
0.0.0.0 instagram-shv-01-hkg2.fbcdn.net
0.0.0.0 instagram-shv-01-iad3.fbcdn.net
0.0.0.0 instagram-shv-01-kul1.fbcdn.net
0.0.0.0 instagram-shv-01-lax1.fbcdn.net
0.0.0.0 instagram-shv-01-lga1.fbcdn.net
0.0.0.0 instagram-shv-01-lhr3.fbcdn.net
0.0.0.0 instagram-shv-01-mad1.fbcdn.net
0.0.0.0 instagram-shv-01-mia1.fbcdn.net
0.0.0.0 instagram-shv-01-mxp1.fbcdn.net
0.0.0.0 instagram-shv-01-nrt1.fbcdn.net
0.0.0.0 instagram-shv-01-ord1.fbcdn.net
0.0.0.0 instagram-shv-01-sea1.fbcdn.net
0.0.0.0 instagram-shv-01-sin1.fbcdn.net
0.0.0.0 instagram-shv-01-sjc2.fbcdn.net
0.0.0.0 instagram-shv-01-syd1.fbcdn.net
0.0.0.0 instagram-shv-01-tpe1.fbcdn.net
0.0.0.0 instagram-shv-01-vie1.fbcdn.net
0.0.0.0 instagram-shv-02-cai1.fbcdn.net
0.0.0.0 instagram-shv-02-hkg2.fbcdn.net
0.0.0.0 instagram-shv-03-ash5.fbcdn.net
0.0.0.0 instagram-shv-03-atn1.fbcdn.net
0.0.0.0 instagram-shv-03-hkg1.fbcdn.net
0.0.0.0 instagram-shv-03-lla1.fbcdn.net
0.0.0.0 instagram-shv-03-prn2.fbcdn.net
0.0.0.0 instagram-shv-03-xdc1.fbcdn.net
0.0.0.0 instagram-shv-04-hkg1.fbcdn.net
0.0.0.0 instagram-shv-06-atn1.fbcdn.net
0.0.0.0 instagram-shv-06-lla1.fbcdn.net
0.0.0.0 instagram-shv-07-ash4.fbcdn.net
0.0.0.0 instagram-shv-07-frc3.fbcdn.net
0.0.0.0 instagram-shv-09-frc1.fbcdn.net
0.0.0.0 instagram-shv-09-lla1.fbcdn.net
0.0.0.0 instagram-shv-12-frc1.fbcdn.net
0.0.0.0 instagram-shv-12-frc3.fbcdn.net
0.0.0.0 instagram-shv-12-lla1.fbcdn.net
0.0.0.0 instagram-shv-12-prn1.fbcdn.net
0.0.0.0 instagram-shv-13-frc1.fbcdn.net
0.0.0.0 instagram-shv-17-prn1.fbcdn.net
0.0.0.0 instagram-shv-18-prn1.fbcdn.net
0.0.0.0 instagram.c10r.facebook.com
0.0.0.0 instagram.com
0.0.0.0 instagramstatic-a.akamaihd.net
0.0.0.0 instagramstatic-a.akamaihd.net.edgesuite.net
0.0.0.0 l.instagram.com
0.0.0.0 logger.instagram.com
0.0.0.0 platform.instagram.com
0.0.0.0 scontent-a.cdninstagram.com
0.0.0.0 scontent-ams3-1.cdninstagram.com
0.0.0.0 scontent-amt2-1.cdninstagram.com
0.0.0.0 scontent-arn2-1.cdninstagram.com
0.0.0.0 scontent-atl3-1.cdninstagram.com
0.0.0.0 scontent-b.cdninstagram.com
0.0.0.0 scontent-dft4-1.cdninstagram.com
0.0.0.0 scontent-dft4-2.cdninstagram.com
0.0.0.0 scontent-fra3-1.cdninstagram.com
0.0.0.0 scontent-frt3-1.cdninstagram.com
0.0.0.0 scontent-frx5-1.cdninstagram.com
0.0.0.0 scontent-iad3-1.cdninstagram.com
0.0.0.0 scontent-kul1-1.cdninstagram.com
0.0.0.0 scontent-mia1-1.cdninstagram.com
0.0.0.0 scontent-ort2-1.cdninstagram.com
0.0.0.0 scontent-ort2-2.cdninstagram.com
0.0.0.0 scontent-sea1-1.cdninstagram.com
0.0.0.0 scontent-sit4-1.cdninstagram.com
0.0.0.0 scontent-sjc2-1.cdninstagram.com
0.0.0.0 scontent-syd2-1.cdninstagram.com
0.0.0.0 scontent.cdninstagram.com
0.0.0.0 telegraph-ash.instagram.com
0.0.0.0 white.ish.instagram.com
0.0.0.0 www.instagram.com
0.0.0.0 a.ns.cdninstagram.com
0.0.0.0 b.ns.cdninstagram.com
0.0.0.0 c.ns.cdninstagram.com
0.0.0.0 creative.cdninstagram.com
0.0.0.0 d.ns.cdninstagram.com
0.0.0.0 dragon.cdninstagram.com
0.0.0.0 external.cdninstagram.com
0.0.0.0 openvpn.cdninstagram.com
0.0.0.0 platform.cdninstagram.com
0.0.0.0 scontent-a-ams.cdninstagram.com
0.0.0.0 scontent-a-amt.cdninstagram.com
0.0.0.0 scontent-a-arn.cdninstagram.com
0.0.0.0 scontent-a-atl.cdninstagram.com
0.0.0.0 scontent-a-bog.cdninstagram.com
0.0.0.0 scontent-a-bru.cdninstagram.com
0.0.0.0 scontent-a-cdg.cdninstagram.com
0.0.0.0 scontent-a-dfw.cdninstagram.com
0.0.0.0 scontent-a-eze.cdninstagram.com
0.0.0.0 scontent-a-frt.cdninstagram.com
0.0.0.0 scontent-a-frx.cdninstagram.com
0.0.0.0 scontent-a-gru.cdninstagram.com
0.0.0.0 scontent-a-hkg.cdninstagram.com
0.0.0.0 scontent-a-iad.cdninstagram.com
0.0.0.0 scontent-a-kut.cdninstagram.com
0.0.0.0 scontent-a-lax.cdninstagram.com
0.0.0.0 scontent-a-lga.cdninstagram.com
0.0.0.0 scontent-a-lht.cdninstagram.com
0.0.0.0 scontent-a-mad.cdninstagram.com
0.0.0.0 scontent-a-mia.cdninstagram.com
0.0.0.0 scontent-a-mrs.cdninstagram.com
0.0.0.0 scontent-a-mxp.cdninstagram.com
0.0.0.0 scontent-a-nrt.cdninstagram.com
0.0.0.0 scontent-a-ort.cdninstagram.com
0.0.0.0 scontent-a-otp.cdninstagram.com
0.0.0.0 scontent-a-scl.cdninstagram.com
0.0.0.0 scontent-a-sea.cdninstagram.com
0.0.0.0 scontent-a-sin.cdninstagram.com
0.0.0.0 scontent-a-sjc.cdninstagram.com
0.0.0.0 scontent-a-sof.cdninstagram.com
0.0.0.0 scontent-a-syd.cdninstagram.com
0.0.0.0 scontent-a-tpe.cdninstagram.com
0.0.0.0 scontent-a-vie.cdninstagram.com
0.0.0.0 scontent-a-waw.cdninstagram.com
0.0.0.0 scontent-a-yyz.cdninstagram.com
0.0.0.0 scontent-ams.cdninstagram.com
0.0.0.0 scontent-ams4-1.cdninstagram.com
0.0.0.0 scontent-arn.cdninstagram.com
0.0.0.0 scontent-arn2-2.cdninstagram.com
0.0.0.0 scontent-atl.cdninstagram.com
0.0.0.0 scontent-b-ams.cdninstagram.com
0.0.0.0 scontent-b-amt.cdninstagram.com
0.0.0.0 scontent-b-arn.cdninstagram.com
0.0.0.0 scontent-b-atl.cdninstagram.com
0.0.0.0 scontent-b-bog.cdninstagram.com
0.0.0.0 scontent-b-bru.cdninstagram.com
0.0.0.0 scontent-b-cdg.cdninstagram.com
0.0.0.0 scontent-b-dfw.cdninstagram.com
0.0.0.0 scontent-b-eze.cdninstagram.com
0.0.0.0 scontent-b-frt.cdninstagram.com
0.0.0.0 scontent-b-frx.cdninstagram.com
0.0.0.0 scontent-b-gru.cdninstagram.com
0.0.0.0 scontent-b-hkg.cdninstagram.com
0.0.0.0 scontent-b-iad.cdninstagram.com
0.0.0.0 scontent-b-icn.cdninstagram.com
0.0.0.0 scontent-b-kut.cdninstagram.com
0.0.0.0 scontent-b-lax.cdninstagram.com
0.0.0.0 scontent-b-lga.cdninstagram.com
0.0.0.0 scontent-b-lhr.cdninstagram.com
0.0.0.0 scontent-b-lht.cdninstagram.com
0.0.0.0 scontent-b-mad.cdninstagram.com
0.0.0.0 scontent-b-mia.cdninstagram.com
0.0.0.0 scontent-b-mrs.cdninstagram.com
0.0.0.0 scontent-b-mxp.cdninstagram.com
0.0.0.0 scontent-b-nrt.cdninstagram.com
0.0.0.0 scontent-b-ord.cdninstagram.com
0.0.0.0 scontent-b-ort.cdninstagram.com
0.0.0.0 scontent-b-otp.cdninstagram.com
0.0.0.0 scontent-b-pao.cdninstagram.com
0.0.0.0 scontent-b-scl.cdninstagram.com
0.0.0.0 scontent-b-sea.cdninstagram.com
0.0.0.0 scontent-b-sin.cdninstagram.com
0.0.0.0 scontent-b-sjc.cdninstagram.com
0.0.0.0 scontent-b-sof.cdninstagram.com
0.0.0.0 scontent-b-syd.cdninstagram.com
0.0.0.0 scontent-b-tpe.cdninstagram.com
0.0.0.0 scontent-b-vie.cdninstagram.com
0.0.0.0 scontent-b-waw.cdninstagram.com
0.0.0.0 scontent-b-yyz.cdninstagram.com
0.0.0.0 scontent-ber1-1.cdninstagram.com
0.0.0.0 scontent-bog1-1.cdninstagram.com
0.0.0.0 scontent-bom1-1.cdninstagram.com
0.0.0.0 scontent-bos3-1.cdninstagram.com
0.0.0.0 scontent-bru.cdninstagram.com
0.0.0.0 scontent-bru2-1.cdninstagram.com
0.0.0.0 scontent-cai1-1.cdninstagram.com
0.0.0.0 scontent-cdg.cdninstagram.com
0.0.0.0 scontent-cdg2-1.cdninstagram.com
0.0.0.0 scontent-cdt.cdninstagram.com
0.0.0.0 scontent-cdt1-1.cdninstagram.com
0.0.0.0 scontent-cgk.cdninstagram.com
0.0.0.0 scontent-cgk1-1.cdninstagram.com
0.0.0.0 scontent-cph2-1.cdninstagram.com
0.0.0.0 scontent-del1-1.cdninstagram.com
0.0.0.0 scontent-den4-1.cdninstagram.com
0.0.0.0 scontent-dft4-3.cdninstagram.com
0.0.0.0 scontent-dfw.cdninstagram.com
0.0.0.0 scontent-dfw1-1.cdninstagram.com
0.0.0.0 scontent-dfw5-1.cdninstagram.com
0.0.0.0 scontent-dfw5-2.cdninstagram.com
0.0.0.0 scontent-dub4-1.cdninstagram.com
0.0.0.0 scontent-dus.cdninstagram.com
0.0.0.0 scontent-dus1-1.cdninstagram.com
0.0.0.0 scontent-eze1-1.cdninstagram.com
0.0.0.0 scontent-fco1-1.cdninstagram.com
0.0.0.0 scontent-fml1-1.cdninstagram.com
0.0.0.0 scontent-fml2-1.cdninstagram.com
0.0.0.0 scontent-for1-1.cdninstagram.com
0.0.0.0 scontent-frt.cdninstagram.com
0.0.0.0 scontent-frt3-2.cdninstagram.com
0.0.0.0 scontent-frx.cdninstagram.com
0.0.0.0 scontent-gig2-1.cdninstagram.com
0.0.0.0 scontent-gmp1-1.cdninstagram.com
0.0.0.0 scontent-gru.cdninstagram.com
0.0.0.0 scontent-gru1-1.cdninstagram.com
0.0.0.0 scontent-gru2-1.cdninstagram.com
0.0.0.0 scontent-gru2-2.cdninstagram.com
0.0.0.0 scontent-ham3-1.cdninstagram.com
0.0.0.0 scontent-hbe1-1.cdninstagram.com
0.0.0.0 scontent-hel2-1.cdninstagram.com
0.0.0.0 scontent-hkg.cdninstagram.com
0.0.0.0 scontent-hkg3-1.cdninstagram.com
0.0.0.0 scontent-hkg3-2.cdninstagram.com
0.0.0.0 scontent-hkt1-1.cdninstagram.com
0.0.0.0 scontent-iad.cdninstagram.com
0.0.0.0 scontent-icn1-1.cdninstagram.com
0.0.0.0 scontent-itm1-1.cdninstagram.com
0.0.0.0 scontent-jnb1-1.cdninstagram.com
0.0.0.0 scontent-kut2-1.cdninstagram.com
0.0.0.0 scontent-kut2-2.cdninstagram.com
0.0.0.0 scontent-lax.cdninstagram.com
0.0.0.0 scontent-lax3-1.cdninstagram.com
0.0.0.0 scontent-lax3-2.cdninstagram.com
0.0.0.0 scontent-lga.cdninstagram.com
0.0.0.0 scontent-lga3-1.cdninstagram.com
0.0.0.0 scontent-lhr.cdninstagram.com
0.0.0.0 scontent-lhr3-1.cdninstagram.com
0.0.0.0 scontent-lhr8-1.cdninstagram.com
0.0.0.0 scontent-lht6-1.cdninstagram.com
0.0.0.0 scontent-lim1-1.cdninstagram.com
0.0.0.0 scontent-lis1-1.cdninstagram.com
0.0.0.0 scontent-maa2-1.cdninstagram.com
0.0.0.0 scontent-maa2-2.cdninstagram.com
0.0.0.0 scontent-mad.cdninstagram.com
0.0.0.0 scontent-mad1-1.cdninstagram.com
0.0.0.0 scontent-mba1-1.cdninstagram.com
0.0.0.0 scontent-mia.cdninstagram.com
0.0.0.0 scontent-mia1-2.cdninstagram.com
0.0.0.0 scontent-mia3-1.cdninstagram.com
0.0.0.0 scontent-mia3-2.cdninstagram.com
0.0.0.0 scontent-mrs.cdninstagram.com
0.0.0.0 scontent-mrs1-1.cdninstagram.com
0.0.0.0 scontent-mrs2-1.cdninstagram.com
0.0.0.0 scontent-mrs2-2.cdninstagram.com
0.0.0.0 scontent-msp1-1.cdninstagram.com
0.0.0.0 scontent-mxp.cdninstagram.com
0.0.0.0 scontent-mxp1-1.cdninstagram.com
0.0.0.0 scontent-nrt.cdninstagram.com
0.0.0.0 scontent-nrt1-1.cdninstagram.com
0.0.0.0 scontent-ord.cdninstagram.com
0.0.0.0 scontent-ord1-1.cdninstagram.com
0.0.0.0 scontent-otp1-1.cdninstagram.com
0.0.0.0 scontent-prg1-1.cdninstagram.com
0.0.0.0 scontent-qro1-1.cdninstagram.com
0.0.0.0 scontent-scl1-1.cdninstagram.com
0.0.0.0 scontent-scl2-1.cdninstagram.com
0.0.0.0 scontent-sea.cdninstagram.com
0.0.0.0 scontent-sin.cdninstagram.com
0.0.0.0 scontent-sin2-1.cdninstagram.com
0.0.0.0 scontent-sin2-2.cdninstagram.com
0.0.0.0 scontent-sin6-1.cdninstagram.com
0.0.0.0 scontent-sin6-2.cdninstagram.com
0.0.0.0 scontent-sin9-1.cdninstagram.com
0.0.0.0 scontent-sjc.cdninstagram.com
0.0.0.0 scontent-sjc3-1.cdninstagram.com
0.0.0.0 scontent-sju1-1.cdninstagram.com
0.0.0.0 scontent-sof.cdninstagram.com
0.0.0.0 scontent-sof1-1.cdninstagram.com
0.0.0.0 scontent-ssn1-1.cdninstagram.com
0.0.0.0 scontent-tpe.cdninstagram.com
0.0.0.0 scontent-tpe1-1.cdninstagram.com
0.0.0.0 scontent-vie.cdninstagram.com
0.0.0.0 scontent-vie1-1.cdninstagram.com
0.0.0.0 scontent-waw1-1.cdninstagram.com
0.0.0.0 scontent-xsp.cdninstagram.com
0.0.0.0 scontent-xsp1-1.cdninstagram.com
0.0.0.0 scontent-xsp1-2.cdninstagram.com
0.0.0.0 scontent-yyz1-1.cdninstagram.com
0.0.0.0 scontent-zrh1-1.cdninstagram.com
0.0.0.0 static.cdninstagram.com
0.0.0.0 video-nrt1-1.cdninstagram.com
0.0.0.0 video-ort2-1.cdninstagram.com
0.0.0.0 video-ort2-2.cdninstagram.com
0.0.0.0 video.cdninstagram.com
0.0.0.0 www.cdninstagram.com
0.0.0.0 z-p15-scontent-bru2-1.cdninstagram.com
0.0.0.0 z-p15-scontent-cdg2-1.cdninstagram.com
0.0.0.0 z-p15-scontent-cdt1-1.cdninstagram.com
0.0.0.0 z-p15-scontent-lhr3-1.cdninstagram.com
0.0.0.0 z-p15-scontent-lht6-1.cdninstagram.com
0.0.0.0 z-p15-scontent.cdninstagram.com
0.0.0.0 z-p4-scontent-ams3-1.cdninstagram.com
0.0.0.0 z-p4-scontent-ams4-1.cdninstagram.com
0.0.0.0 z-p4-scontent-amt2-1.cdninstagram.com
0.0.0.0 z-p4-scontent-arn2-1.cdninstagram.com
0.0.0.0 z-p4-scontent-arn2-2.cdninstagram.com
0.0.0.0 z-p4-scontent-bru2-1.cdninstagram.com
0.0.0.0 z-p4-scontent-cdg2-1.cdninstagram.com
0.0.0.0 z-p4-scontent-cdt1-1.cdninstagram.com
0.0.0.0 z-p4-scontent-dfw5-1.cdninstagram.com
0.0.0.0 z-p4-scontent-frt3-1.cdninstagram.com
0.0.0.0 z-p4-scontent-frt3-2.cdninstagram.com
0.0.0.0 z-p4-scontent-frx5-1.cdninstagram.com
0.0.0.0 z-p4-scontent-lax3-1.cdninstagram.com
0.0.0.0 z-p4-scontent-lga3-1.cdninstagram.com
0.0.0.0 z-p4-scontent-lhr3-1.cdninstagram.com
0.0.0.0 z-p4-scontent-lht6-1.cdninstagram.com
0.0.0.0 z-p4-scontent-mrs1-1.cdninstagram.com
0.0.0.0 z-p4-scontent-mxp1-1.cdninstagram.com
0.0.0.0 z-p4-scontent-otp1-1.cdninstagram.com
0.0.0.0 z-p4-scontent-waw1-1.cdninstagram.com
0.0.0.0 z-p4-scontent.cdninstagram.com
0.0.0.0 z-p42-scontent-ams3-1.cdninstagram.com
0.0.0.0 z-p42-scontent-amt2-1.cdninstagram.com
0.0.0.0 z-p42-scontent-arn2-1.cdninstagram.com
0.0.0.0 z-p42-scontent-arn2-2.cdninstagram.com
0.0.0.0 z-p42-scontent-atl3-1.cdninstagram.com
0.0.0.0 z-p42-scontent-ber1-1.cdninstagram.com
0.0.0.0 z-p42-scontent-bom1-1.cdninstagram.com
0.0.0.0 z-p42-scontent-bom1-2.cdninstagram.com
0.0.0.0 z-p42-scontent-bru2-1.cdninstagram.com
0.0.0.0 z-p42-scontent-cdg2-1.cdninstagram.com
0.0.0.0 z-p42-scontent-cdt1-1.cdninstagram.com
0.0.0.0 z-p42-scontent-dfw5-1.cdninstagram.com
0.0.0.0 z-p42-scontent-dfw5-2.cdninstagram.com
0.0.0.0 z-p42-scontent-dub4-1.cdninstagram.com
0.0.0.0 z-p42-scontent-dus1-1.cdninstagram.com
0.0.0.0 z-p42-scontent-frt3-1.cdninstagram.com
0.0.0.0 z-p42-scontent-frt3-2.cdninstagram.com
0.0.0.0 z-p42-scontent-frx5-1.cdninstagram.com
0.0.0.0 z-p42-scontent-hbe1-1.cdninstagram.com
0.0.0.0 z-p42-scontent-hkg3-1.cdninstagram.com
0.0.0.0 z-p42-scontent-iad3-1.cdninstagram.com
0.0.0.0 z-p42-scontent-icn1-1.cdninstagram.com
0.0.0.0 z-p42-scontent-jnb1-1.cdninstagram.com
0.0.0.0 z-p42-scontent-lax3-1.cdninstagram.com
0.0.0.0 z-p42-scontent-lax3-2.cdninstagram.com
0.0.0.0 z-p42-scontent-lga3-1.cdninstagram.com
0.0.0.0 z-p42-scontent-lhr3-1.cdninstagram.com
0.0.0.0 z-p42-scontent-lht6-1.cdninstagram.com
0.0.0.0 z-p42-scontent-los2-1.cdninstagram.com
0.0.0.0 z-p42-scontent-mad1-1.cdninstagram.com
0.0.0.0 z-p42-scontent-mia3-1.cdninstagram.com
0.0.0.0 z-p42-scontent-mia3-2.cdninstagram.com
0.0.0.0 z-p42-scontent-mrs1-1.cdninstagram.com
0.0.0.0 z-p42-scontent-msp1-1.cdninstagram.com
0.0.0.0 z-p42-scontent-mxp1-1.cdninstagram.com
0.0.0.0 z-p42-scontent-nrt1-1.cdninstagram.com
0.0.0.0 z-p42-scontent-ort2-1.cdninstagram.com
0.0.0.0 z-p42-scontent-ort2-2.cdninstagram.com
0.0.0.0 z-p42-scontent-sea1-1.cdninstagram.com
0.0.0.0 z-p42-scontent-sin2-1.cdninstagram.com
0.0.0.0 z-p42-scontent-sin2-2.cdninstagram.com
0.0.0.0 z-p42-scontent-sin6-1.cdninstagram.com
0.0.0.0 z-p42-scontent-sin6-2.cdninstagram.com
0.0.0.0 z-p42-scontent-sjc3-1.cdninstagram.com
0.0.0.0 z-p42-scontent-sof1-1.cdninstagram.com
0.0.0.0 z-p42-scontent-syd2-1.cdninstagram.com
0.0.0.0 z-p42-scontent-vie1-1.cdninstagram.com
0.0.0.0 z-p42-scontent-waw1-1.cdninstagram.com
0.0.0.0 z-p42-scontent-yyz1-1.cdninstagram.com
0.0.0.0 z-p42-scontent.cdninstagram.com
0.0.0.0 z-p42-static.cdninstagram.com

# Whatsapp
0.0.0.0 account.whatsapp.com
0.0.0.0 alpha.whatsapp.com
0.0.0.0 api.whatsapp.com
0.0.0.0 autodiscover.whatsapp.com
0.0.0.0 beta.whatsapp.com
0.0.0.0 betablog.whatsapp.com
0.0.0.0 blog.whatsapp.com
0.0.0.0 chat.whatsapp.com
0.0.0.0 dev-web.whatsapp.com
0.0.0.0 dyn.web.whatsapp.com
0.0.0.0 e1.whatsapp.net
0.0.0.0 e10.whatsapp.net
0.0.0.0 e11.whatsapp.net
0.0.0.0 e12.whatsapp.net
0.0.0.0 e13.whatsapp.net
0.0.0.0 e14.whatsapp.net
0.0.0.0 e15.whatsapp.net
0.0.0.0 e16.whatsapp.net
0.0.0.0 e2.whatsapp.net
0.0.0.0 e3.whatsapp.net
0.0.0.0 e4.whatsapp.net
0.0.0.0 e5.whatsapp.net
0.0.0.0 e6.whatsapp.net
0.0.0.0 e7.whatsapp.net
0.0.0.0 e8.whatsapp.net
0.0.0.0 e9.whatsapp.net
0.0.0.0 faq.whatsapp.com
0.0.0.0 g.whatsapp.net
0.0.0.0 gamma.whatsapp.com
0.0.0.0 graph.whatsapp.net
0.0.0.0 m.whatsapp.com
0.0.0.0 media-ams3-1.cdn.whatsapp.net
0.0.0.0 media-amt2-1.cdn.whatsapp.net
0.0.0.0 media-arn2-1.cdn.whatsapp.net
0.0.0.0 media-ber1-1.cdn.whatsapp.net
0.0.0.0 media-bru2-1.cdn.whatsapp.net
0.0.0.0 media-cdt1-1.cdn.whatsapp.net
0.0.0.0 media-dfw5-1.cdn.whatsapp.net
0.0.0.0 media-frt3-1.cdn.whatsapp.net
0.0.0.0 media-frt3-2.cdn.whatsapp.net
0.0.0.0 media-frx5-1.cdn.whatsapp.net
0.0.0.0 media-iad3-1.cdn.whatsapp.net
0.0.0.0 media-lax3-1.cdn.whatsapp.net
0.0.0.0 media-lax3-2.cdn.whatsapp.net
0.0.0.0 media-lga3-1.cdn.whatsapp.net
0.0.0.0 media-lhr3-1.cdn.whatsapp.net
0.0.0.0 media-lht6-1.cdn.whatsapp.net
0.0.0.0 media-mad1-1.cdn.whatsapp.net
0.0.0.0 media-mia3-1.cdn.whatsapp.net
0.0.0.0 media-mxp1-1.cdn.whatsapp.net
0.0.0.0 media-ort2-1.cdn.whatsapp.net
0.0.0.0 media-ort2-2.cdn.whatsapp.net
0.0.0.0 media-otp1-1.cdn.whatsapp.net
0.0.0.0 media-sea1-1.cdn.whatsapp.net
0.0.0.0 media-sin6-1.cdn.whatsapp.net
0.0.0.0 media-sjc3-1.cdn.whatsapp.net
0.0.0.0 media-sof1-1.cdn.whatsapp.net
0.0.0.0 media-vie1-1.cdn.whatsapp.net
0.0.0.0 media-waw1-1.cdn.whatsapp.net
0.0.0.0 media-yyz1-1-cdn.whatsapp.net
0.0.0.0 media.fabj2-1.fna.whatsapp.net
0.0.0.0 media.fada1-2.fna.whatsapp.net
0.0.0.0 media.fads1-1.fna.whatsapp.net
0.0.0.0 media.fbed1-2.fna.whatsapp.net
0.0.0.0 media.fbel3-1.fna.whatsapp.net
0.0.0.0 media.fcgh5-1.fna.whatsapp.net
0.0.0.0 media.fcgk9-1.fna.whatsapp.net
0.0.0.0 media.fdel11-1.fna.whatsapp.net
0.0.0.0 media.fdel3-1.fna.whatsapp.net
0.0.0.0 media.feoh3-1.fna.whatsapp.net
0.0.0.0 media.fevn1-1.fna.whatsapp.net
0.0.0.0 media.ffjr1-1.fna.whatsapp.net
0.0.0.0 media.ffjr1-3.fna.whatsapp.net
0.0.0.0 media.fgye1-1.fna.whatsapp.net
0.0.0.0 media.fhel2-1.fna.whatsapp.net
0.0.0.0 media.fhel3-1.fna.whatsapp.net
0.0.0.0 media.fisu5-1.fna.whatsapp.net
0.0.0.0 media.flim6-1.fna.whatsapp.net
0.0.0.0 media.flos2-1.fna.whatsapp.net
0.0.0.0 media.fmnl10-1.fna.whatsapp.net
0.0.0.0 media.fplu6-1.fna.whatsapp.net
0.0.0.0 media.fprg2-1.fna.whatsapp.net
0.0.0.0 media.frec2-1.fna.whatsapp.net
0.0.0.0 media.frix1-1.fna.whatsapp.net
0.0.0.0 media.frix4-1.fna.whatsapp.net
0.0.0.0 media.fskg1-1.fna.whatsapp.net
0.0.0.0 media.fssa13-1.fna.whatsapp.net
0.0.0.0 media.fsst1-2.fna.whatsapp.net
0.0.0.0 media.fsyq1-1.fna.whatsapp.net
0.0.0.0 media.ftpe4-1.fna.whatsapp.net
0.0.0.0 media.fykz1-1.fna.whatsapp.net
0.0.0.0 media.fyxd2-1.fna.whatsapp.net
0.0.0.0 media.fzty2-1.fna.whatsapp.net
0.0.0.0 media.whatsapp.com
0.0.0.0 mme.whatsapp.net
0.0.0.0 mme6.whatsapp.net
0.0.0.0 mmg-fna.whatsapp.net
0.0.0.0 mmg.whatsapp.net
0.0.0.0 mmi244.whatsapp.net
0.0.0.0 mmi269.whatsapp.net
0.0.0.0 mmi479.whatsapp.net
0.0.0.0 mmi483.whatsapp.net
0.0.0.0 mmi651.whatsapp.net
0.0.0.0 mmi701.whatsapp.net
0.0.0.0 mmi731.whatsapp.net
0.0.0.0 mms.whatsapp.net
0.0.0.0 pps.whatsapp.net
0.0.0.0 ratings.whatsapp.com
0.0.0.0 translate-dev.whatsapp.com
0.0.0.0 translate.whatsapp.com
0.0.0.0 up.web.whatsapp.com
0.0.0.0 v.whatsapp.com
0.0.0.0 v.whatsapp.net
0.0.0.0 w1.web.whatsapp.com
0.0.0.0 w2.web.whatsapp.com
0.0.0.0 w3.web.whatsapp.com
0.0.0.0 w4.web.whatsapp.com
0.0.0.0 w5.web.whatsapp.com
0.0.0.0 w6.web.whatsapp.com
0.0.0.0 w7.web.whatsapp.com
0.0.0.0 w8.web.whatsapp.com
0.0.0.0 w9.web.whatsapp.com
0.0.0.0 web.whatsapp.com
0.0.0.0 whatsapp-cdn-shv-01-arn2.fbcdn.net
0.0.0.0 whatsapp-cdn-shv-01-atl1.fbcdn.net
0.0.0.0 whatsapp-cdn-shv-01-bom1.fbcdn.net
0.0.0.0 whatsapp-cdn-shv-01-cdg2.fbcdn.net
0.0.0.0 whatsapp-cdn-shv-01-dft4.fbcdn.net
0.0.0.0 whatsapp-cdn-shv-01-dfw1.fbcdn.net
0.0.0.0 whatsapp-cdn-shv-01-dfw5.fbcdn.net
0.0.0.0 whatsapp-cdn-shv-01-frt3.fbcdn.net
0.0.0.0 whatsapp-cdn-shv-01-gru2.fbcdn.net
0.0.0.0 whatsapp-cdn-shv-01-hkg3.fbcdn.net
0.0.0.0 whatsapp-cdn-shv-01-iad3.fbcdn.net
0.0.0.0 whatsapp-cdn-shv-01-kut2.fbcdn.net
0.0.0.0 whatsapp-cdn-shv-01-lax1.fbcdn.net
0.0.0.0 whatsapp-cdn-shv-01-lax3.fbcdn.net
0.0.0.0 whatsapp-cdn-shv-01-lga1.fbcdn.net
0.0.0.0 whatsapp-cdn-shv-01-lhr3.fbcdn.net
0.0.0.0 whatsapp-cdn-shv-01-mad1.fbcdn.net
0.0.0.0 whatsapp-cdn-shv-01-mia1.fbcdn.net
0.0.0.0 whatsapp-cdn-shv-01-ord1.fbcdn.net
0.0.0.0 whatsapp-cdn-shv-01-sea1.fbcdn.net
0.0.0.0 whatsapp-cdn-shv-01-sin1.fbcdn.net
0.0.0.0 whatsapp-cdn-shv-01-sin6.fbcdn.net
0.0.0.0 whatsapp-cdn-shv-01-sit4.fbcdn.net
0.0.0.0 whatsapp-cdn-shv-01-sjc2.fbcdn.net
0.0.0.0 whatsapp-cdn-shv-01-vie1.fbcdn.net
0.0.0.0 whatsapp-cdn-shv-02-sin6.fbcdn.net
0.0.0.0 whatsapp.com
0.0.0.0 www-cdn.whatsapp.net
0.0.0.0 www.whatsapp.com
0.0.0.0 wwwl.whatsapp.com

# LinkedIn
0.0.0.0 addtoprofile.linkedin.com
0.0.0.0 ae.linkedin.com
0.0.0.0 ajuda.linkedin.com
0.0.0.0 ap.linkedin.com
0.0.0.0 api.linkedin.com
0.0.0.0 ar-ae.help.linkedin.com
0.0.0.0 ar.linkedin.com
0.0.0.0 asistenta.linkedin.com
0.0.0.0 at.linkedin.com
0.0.0.0 au.linkedin.com
0.0.0.0 autodiscover.linkedin.com
0.0.0.0 ayuda.linkedin.com
0.0.0.0 be.linkedin.com
0.0.0.0 blog.linkedin.com
0.0.0.0 br.linkedin.com
0.0.0.0 brand.linkedin.com
0.0.0.0 bringinyourparents.linkedin.com
0.0.0.0 business.linkedin.com
0.0.0.0 ca.linkedin.com
0.0.0.0 certification.linkedin.com
0.0.0.0 ch.linkedin.com
0.0.0.0 cms.linkedin.com
0.0.0.0 co.linkedin.com
0.0.0.0 commsconnect.linkedin.com
0.0.0.0 community-test.linkedin.com
0.0.0.0 community.linkedin.com
0.0.0.0 conscious.linkedin.com
0.0.0.0 content.linkedin.com
0.0.0.0 cy.linkedin.com
0.0.0.0 cz.linkedin.com
0.0.0.0 data.linkedin.com
0.0.0.0 de.linkedin.com
0.0.0.0 dev-signin.lms.linkedin.com
0.0.0.0 dev.lms.linkedin.com
0.0.0.0 developer.linkedin.com
0.0.0.0 developers.linkedin.com
0.0.0.0 dk.linkedin.com
0.0.0.0 download.linkedin.com
0.0.0.0 e.linkedin.com
0.0.0.0 ec.linkedin.com
0.0.0.0 economicgraph.linkedin.com
0.0.0.0 ee.linkedin.com
0.0.0.0 engineering.linkedin.com
0.0.0.0 es.linkedin.com
0.0.0.0 eu-west-1.dc.ads.linkedin.com
0.0.0.0 events.linkedin.com
0.0.0.0 fi.linkedin.com
0.0.0.0 financeconnect.linkedin.com
0.0.0.0 forms.linkedin.com
0.0.0.0 fr.linkedin.com
0.0.0.0 gb.linkedin.com
0.0.0.0 gr.linkedin.com
0.0.0.0 gsk.linkedin.com
0.0.0.0 guida.linkedin.com
0.0.0.0 gw.linkedin.com
0.0.0.0 help-enterprise.linkedin.com
0.0.0.0 help-internal.linkedin.com
0.0.0.0 help-test.linkedin.com
0.0.0.0 help-test2.linkedin.com
0.0.0.0 help.linkedin.com
0.0.0.0 hilfe.linkedin.com
0.0.0.0 hjalp.linkedin.com
0.0.0.0 hjelp.linkedin.com
0.0.0.0 hk.linkedin.com
0.0.0.0 hulp.linkedin.com
0.0.0.0 ib.linkedin.com
0.0.0.0 id.linkedin.com
0.0.0.0 ie.linkedin.com
0.0.0.0 il.linkedin.com
0.0.0.0 imagine.linkedin.com
0.0.0.0 imp2.ads.linkedin.com
0.0.0.0 in.bantuan.linkedin.com
0.0.0.0 in.linkedin.com
0.0.0.0 intro.linkedin.com
0.0.0.0 investors.linkedin.com
0.0.0.0 iphone.linkedin.com
0.0.0.0 iq.linkedin.com
0.0.0.0 is.linkedin.com
0.0.0.0 it.linkedin.com
0.0.0.0 ja.linkedin.com
0.0.0.0 jp.linkedin.com
0.0.0.0 ke.linkedin.com
0.0.0.0 kr.linkedin.com
0.0.0.0 learning.linkedin.com
0.0.0.0 lifg.linkedin.com
0.0.0.0 linkedin.com
0.0.0.0 linkedinforgood.linkedin.com
0.0.0.0 lists.linkedin.com
0.0.0.0 live.linkedin.com
0.0.0.0 lk.linkedin.com
0.0.0.0 lms.linkedin.com
0.0.0.0 lu.linkedin.com
0.0.0.0 m.linkedin.com
0.0.0.0 mail-test.linkedin.com
0.0.0.0 mail.linkedin.com
0.0.0.0 mail01.linkedin.com
0.0.0.0 mail02.linkedin.com
0.0.0.0 mail03.linkedin.com
0.0.0.0 mail04.linkedin.com
0.0.0.0 marketing.linkedin.com
0.0.0.0 me.linkedin.com
0.0.0.0 media.licdn.com
0.0.0.0 members.linkedin.com
0.0.0.0 mentor.linkedin.com
0.0.0.0 mobile.linkedin.com
0.0.0.0 ms.bantuan.linkedin.com
0.0.0.0 mx.linkedin.com
0.0.0.0 my.linkedin.com
0.0.0.0 napoveda.linkedin.com
0.0.0.0 nc.linkedin.com
0.0.0.0 news.linkedin.com
0.0.0.0 ng.linkedin.com
0.0.0.0 nl.linkedin.com
0.0.0.0 no.linkedin.com
0.0.0.0 nonprofit.linkedin.com
0.0.0.0 nonprofits.linkedin.com
0.0.0.0 nr.linkedin.com
0.0.0.0 ns1.linkedin.com
0.0.0.0 ns2.linkedin.com
0.0.0.0 ns3.linkedin.com
0.0.0.0 nt.linkedin.com
0.0.0.0 nz.linkedin.com
0.0.0.0 opportunity.linkedin.com
0.0.0.0 ourstory.linkedin.com
0.0.0.0 pl.linkedin.com
0.0.0.0 platform.linkedin.com
0.0.0.0 polls.linkedin.com
0.0.0.0 pomoc.linkedin.com
0.0.0.0 premium.linkedin.com
0.0.0.0 press.linkedin.com
0.0.0.0 pt.linkedin.com
0.0.0.0 purchasing.linkedin.com
0.0.0.0 qa.linkedin.com
0.0.0.0 remote.linkedin.com
0.0.0.0 ro.linkedin.com
0.0.0.0 ru.linkedin.com
0.0.0.0 rw.linkedin.com
0.0.0.0 sa.linkedin.com
0.0.0.0 sales.linkedin.com
0.0.0.0 salesconnect.linkedin.com
0.0.0.0 sandbox.lms.linkedin.com
0.0.0.0 se.linkedin.com
0.0.0.0 security.linkedin.com
0.0.0.0 sg.linkedin.com
0.0.0.0 si.linkedin.com
0.0.0.0 signin.lms.linkedin.com
0.0.0.0 smallbusiness.linkedin.com
0.0.0.0 specialedition.linkedin.com
0.0.0.0 static.licdn.com
0.0.0.0 studentcareers.linkedin.com
0.0.0.0 students.linkedin.com
0.0.0.0 ta.linkedin.com
0.0.0.0 talent.linkedin.com
0.0.0.0 td.linkedin.com
0.0.0.0 th-th.help.linkedin.com
0.0.0.0 tm.linkedin.com
0.0.0.0 tn.linkedin.com
0.0.0.0 touch.www.linkedin.com
0.0.0.0 tr.linkedin.com
0.0.0.0 training.linkedin.com
0.0.0.0 tulong.linkedin.com
0.0.0.0 tv.linkedin.com
0.0.0.0 tw.linkedin.com
0.0.0.0 tz.linkedin.com
0.0.0.0 uk.linkedin.com
0.0.0.0 university.linkedin.com
0.0.0.0 us.linkedin.com
0.0.0.0 veterans.linkedin.com
0.0.0.0 volunteer.linkedin.com
0.0.0.0 volunteers.linkedin.com
0.0.0.0 ws.linkedin.com
0.0.0.0 www.brand.linkedin.com
0.0.0.0 www.bringinyourparents.linkedin.com
0.0.0.0 www.business.linkedin.com
0.0.0.0 www.certification.linkedin.com
0.0.0.0 www.commsconnect.linkedin.com
0.0.0.0 www.financeconnect.linkedin.com
0.0.0.0 www.gsk.linkedin.com
0.0.0.0 www.imagine.linkedin.com
0.0.0.0 www.licdn.com
0.0.0.0 www.lifg.linkedin.com
0.0.0.0 www.linkedin.com
0.0.0.0 www.linkedinforgood.linkedin.com
0.0.0.0 www.live.linkedin.com
0.0.0.0 www.members.linkedin.com
0.0.0.0 www.mobile.linkedin.com
0.0.0.0 www.nonprofit.linkedin.com
0.0.0.0 www.premium.linkedin.com
0.0.0.0 www.purchasing.linkedin.com
0.0.0.0 www.salesconnect.linkedin.com
0.0.0.0 www.smallbusiness.linkedin.com
0.0.0.0 www.studentcareers.linkedin.com
0.0.0.0 www.students.linkedin.com
0.0.0.0 www.university.linkedin.com
0.0.0.0 www.veterans.linkedin.com
0.0.0.0 www.volunteer.linkedin.com
0.0.0.0 yardim.linkedin.com
0.0.0.0 za.linkedin.com
0.0.0.0 zh-cn.help.linkedin.com
0.0.0.0 zh-tw.help.linkedin.com

# MySpace
0.0.0.0 a1-images.myspacecdn.com
0.0.0.0 a1.ec-images.myspacecdn.com
0.0.0.0 a2-images.myspacecdn.com
0.0.0.0 a2.ec-images.myspacecdn.com
0.0.0.0 a3-images.myspacecdn.com
0.0.0.0 a3.ec-images.myspacecdn.com
0.0.0.0 a4-images.myspacecdn.com
0.0.0.0 a4.ec-images.myspacecdn.com
0.0.0.0 browseusers.myspace.com
0.0.0.0 classifieds.myspace.com
0.0.0.0 cms.myspacecdn.com
0.0.0.0 collect.myspace.com
0.0.0.0 events.myspace.com
0.0.0.0 favorites.myspace.com
0.0.0.0 forum.myspace.com
0.0.0.0 groups.myspace.com
0.0.0.0 home.myspace.com
0.0.0.0 invite.myspace.com
0.0.0.0 linux.myspace.com
0.0.0.0 log.myspace.com
0.0.0.0 login.myspace.com
0.0.0.0 mail.myspace.com
0.0.0.0 message.myspace.com
0.0.0.0 messages.myspace.com
0.0.0.0 music.myspace.com
0.0.0.0 mx2.myspace.com
0.0.0.0 myspace.com
0.0.0.0 myspacecdn.com
0.0.0.0 ns1.myspace.com
0.0.0.0 ns2.myspace.com
0.0.0.0 profile.myspace.com
0.0.0.0 rio.myspace.com
0.0.0.0 search.myspace.com
0.0.0.0 security.myspace.com
0.0.0.0 signup.myspace.com
0.0.0.0 videos.myspace.com
0.0.0.0 vids.myspace.com
0.0.0.0 viewmorepics.myspace.com
0.0.0.0 vmta01.myspace.com
0.0.0.0 vmta02.myspace.com
0.0.0.0 vmta03.myspace.com
0.0.0.0 vmta04.myspace.com
0.0.0.0 vmta05.myspace.com
0.0.0.0 vmta06.myspace.com
0.0.0.0 vmta07.myspace.com
0.0.0.0 vmta08.myspace.com
0.0.0.0 vmta09.myspace.com
0.0.0.0 vmta10.myspace.com
0.0.0.0 vmta11.myspace.com
0.0.0.0 vmta12.myspace.com
0.0.0.0 vmta13.myspace.com
0.0.0.0 www.myspace.com
0.0.0.0 www.myspacecdn.com
0.0.0.0 www1.myspace.com
0.0.0.0 x.myspacecdn.com

# Pinterest
0.0.0.0 about.pinterest.com
0.0.0.0 accounts.pinterest.com
0.0.0.0 api.pinterest.com
0.0.0.0 api.pinterest.com.gslb.pinterest.com
0.0.0.0 assets.pinterest.com
0.0.0.0 blog.pinterest.com
0.0.0.0 br.pinterest.com
0.0.0.0 business.pinterest.com
0.0.0.0 developers.pinterest.com
0.0.0.0 dualstack.pinterest.map.fastly.net
0.0.0.0 engineering.pinterest.com
0.0.0.0 fr.pinterest.com
0.0.0.0 help.pinterest.com
0.0.0.0 i-h1.pinimg.com
0.0.0.0 i.pinimg.com
0.0.0.0 i.pinimg.com.edgekey.net
0.0.0.0 i.pinimg.com.gslb.pinterest.com
0.0.0.0 id.pinterest.com
0.0.0.0 pin.it
0.0.0.0 pinimg.com
0.0.0.0 pinterest.com
0.0.0.0 post.pinterest.com
0.0.0.0 prod.pinterest.global.map.fastly.net
0.0.0.0 s-passets.pinimg.com
0.0.0.0 s-pinimg-com.gslb.pinterest.com
0.0.0.0 s.pinimg.com
0.0.0.0 s.pinimg.com.edgekey.net
0.0.0.0 s.pinimg.com.gslb.pinterest.com
0.0.0.0 uk.pinterest.com
0.0.0.0 v.pinimg.com
0.0.0.0 v.pinimg.com.edgekey.net
0.0.0.0 v.pinimg.com.gslb.pinterest.com
0.0.0.0 www.pinterest.ch
0.0.0.0 www.pinterest.com
0.0.0.0 www.pinterest.com.au
0.0.0.0 www.pinterest.com.edgekey.net
0.0.0.0 www.pinterest.com.gslb.pinterest.com
0.0.0.0 www.pinterest.fr

# Tumblr
0.0.0.0 24.media.tumblr.com
0.0.0.0 25.media.tumblr.com
0.0.0.0 28.media.tumblr.com
0.0.0.0 36.media.tumblr.com
0.0.0.0 37.media.tumblr.com
0.0.0.0 38.media.tumblr.com
0.0.0.0 40.media.tumblr.com
0.0.0.0 66.media.tumblr.com
0.0.0.0 67.media.tumblr.com
0.0.0.0 68.media.tumblr.com
0.0.0.0 78.media.tumblr.com
0.0.0.0 a.tumblr.com
0.0.0.0 api.tumblr.com
0.0.0.0 assets.tumblr.com
0.0.0.0 cookiex.ngd.yahoo.com
0.0.0.0 embed.tumblr.com
0.0.0.0 engineering.tumblr.com
0.0.0.0 platform.tumblr.com
0.0.0.0 px.srvcs.tumblr.com
0.0.0.0 secure.assets.tumblr.com
0.0.0.0 secure.static.tumblr.com
0.0.0.0 staff.tumblr.com
0.0.0.0 static.tumblr.com
0.0.0.0 tumblr.com
0.0.0.0 tumblr.tumblr.com
0.0.0.0 v.tumblr.com
0.0.0.0 vt.tumblr.com
0.0.0.0 www.tumblr.com

# Tik-Toc
0.0.0.0 tiktok.com
0.0.0.0 tiktokcdn.com
0.0.0.0 musical.ly
0.0.0.0 muscdn.com
0.0.0.0 tiktokv.com
0.0.0.0 tiktokcdn-com.akamaized.net
0.0.0.0 mbga.jp
0.0.0.0 mixi.jp
0.0.0.0 mixch.tv
0.0.0.0 lobi.co
# blacklist
#
# The contents of this file (containing a listing of additional domains in
# 'hosts' file format) are appended to the unified hosts file during the
# update process. For example, uncomment the following line to block
# 'example.com':

